# device: Atmel-maXTouch-Touchpad
# bit: 0B 00 00 00 00 00 00 00
# key: 00 00 00 00 00 00 00 00 00 00 00 00 00 00 00 00 00 00 00 00 00 00 00 00 00 00 00 00 00 00 00 00 00 00 01 00 00 00 00 00 20 E5 00 00 00 00 00 00 00 00 00 00 00 00 00 00 00 00 00 00 00 00 00 00 00 00 00 00 00 00 00 00 00 00 00 00 00 00 00 00 00 00 00 00 00 00 00 00 00 00 00 00 00 00 00 00
# rel: 00 00 00 00 00 00 00 00
# abs: 03 00 00 01 00 80 61 06
# led: 00 00 00 00 00 00 00 00
# prp: 05 00 00 00 00 00 00 00
# absinfo: 0 0 2039 0 0 20
# absinfo: 1 0 1359 0 0 20
# absinfo: 24 0 255 0 0 0
# absinfo: 47 0 9 0 0 0
# absinfo: 48 0 1878 0 0 0
# absinfo: 53 0 2039 0 0 20
# absinfo: 54 0 1359 0 0 20
# absinfo: 57 0 65535 0 0 0
# absinfo: 58 0 255 0 0 0
E: 54230.048286 0003 002f 0
E: 54230.048286 0003 0030 180
E: 54230.048286 0003 0031 0
E: 54230.048286 0003 0032 0
E: 54230.048286 0003 0033 0
E: 54230.048286 0003 0034 0
E: 54230.048286 0003 0035 785
E: 54230.048286 0003 0036 1220
E: 54230.048286 0003 0037 0
E: 54230.048286 0003 0038 0
E: 54230.048286 0003 0039 18092
E: 54230.048286 0003 003a 40
E: 54230.048286 0003 003b 0
E: 54230.048286 0003 002f 1
E: 54230.048286 0003 0039 -1
E: 54230.048286 0003 002f 2
E: 54230.048286 0003 0039 -1
E: 54230.048286 0003 002f 3
E: 54230.048286 0003 0039 -1
E: 54230.048286 0003 002f 4
E: 54230.048286 0003 0039 -1
E: 54230.048286 0003 002f 5
E: 54230.048286 0003 0039 -1
E: 54230.048286 0003 002f 6
E: 54230.048286 0003 0039 -1
E: 54230.048286 0003 002f 7
E: 54230.048286 0003 0039 -1
E: 54230.048286 0003 002f 8
E: 54230.048286 0003 0039 -1
E: 54230.048286 0003 002f 9
E: 54230.048286 0003 0039 -1
E: 54230.048286 0003 002f 0
E: 54230.048286 0001 0145 1
E: 54230.048286 0001 014a 1
E: 54230.048286 0000 0000 0
E: 54230.059194 0003 003a 42
E: 54230.059203 0003 0018 42
E: 54230.059204 0000 0000 0
E: 54230.064471 0003 0035 786
E: 54230.064473 0003 003a 46
E: 54230.064475 0003 0030 254
E: 54230.064479 0003 0000 786
E: 54230.064481 0003 0018 46
E: 54230.064482 0000 0000 0
E: 54230.070074 0003 0036 1219
E: 54230.070076 0003 003a 45
E: 54230.070083 0003 0001 1219
E: 54230.070085 0003 0018 45
E: 54230.070086 0000 0000 0
E: 54230.075329 0003 0036 1218
E: 54230.075330 0003 003a 44
E: 54230.075336 0003 0001 1218
E: 54230.075338 0003 0018 44
E: 54230.075339 0000 0000 0
E: 54230.080759 0003 0036 1215
E: 54230.080760 0003 003a 45
E: 54230.080765 0003 0001 1215
E: 54230.080767 0003 0018 45
E: 54230.080768 0000 0000 0
E: 54230.086329 0003 0035 787
E: 54230.086331 0003 0036 1210
E: 54230.086338 0003 0000 787
E: 54230.086340 0003 0001 1210
E: 54230.086342 0000 0000 0
E: 54230.091601 0003 0035 788
E: 54230.091603 0003 0036 1201
E: 54230.091604 0003 003a 48
E: 54230.091606 0003 0030 220
E: 54230.091610 0003 0000 788
E: 54230.091611 0003 0001 1201
E: 54230.091612 0003 0018 48
E: 54230.091613 0000 0000 0
E: 54230.097015 0003 0035 791
E: 54230.097017 0003 0036 1184
E: 54230.097019 0003 0030 180
E: 54230.097023 0003 0000 791
E: 54230.097024 0003 0001 1184
E: 54230.097027 0000 0000 0
E: 54230.102543 0003 0035 794
E: 54230.102546 0003 0036 1164
E: 54230.102547 0003 003a 45
E: 54230.102553 0003 0000 794
E: 54230.102554 0003 0001 1164
E: 54230.102555 0003 0018 45
E: 54230.102557 0000 0000 0
E: 54230.107935 0003 0035 797
E: 54230.107937 0003 0036 1141
E: 54230.107938 0003 003a 48
E: 54230.107939 0003 0030 220
E: 54230.107945 0003 0000 797
E: 54230.107946 0003 0001 1141
E: 54230.107947 0003 0018 48
E: 54230.107948 0000 0000 0
E: 54230.113249 0003 0035 802
E: 54230.113251 0003 0036 1115
E: 54230.113252 0003 003a 49
E: 54230.113259 0003 0000 802
E: 54230.113260 0003 0001 1115
E: 54230.113261 0003 0018 49
E: 54230.113263 0000 0000 0
E: 54230.124427 0003 0035 808
E: 54230.124428 0003 0036 1081
E: 54230.124429 0003 003a 48
E: 54230.124431 0003 0030 254
E: 54230.124435 0003 0000 808
E: 54230.124437 0003 0001 1081
E: 54230.124438 0003 0018 48
E: 54230.124439 0000 0000 0
E: 54230.131149 0003 0035 816
E: 54230.131151 0003 0036 1046
E: 54230.131152 0003 003a 47
E: 54230.131153 0003 0030 220
E: 54230.131158 0003 0000 816
E: 54230.131159 0003 0001 1046
E: 54230.131160 0003 0018 47
E: 54230.131162 0000 0000 0
E: 54230.137646 0003 0035 821
E: 54230.137648 0003 0036 1021
E: 54230.137649 0003 003a 50
E: 54230.137650 0003 0030 180
E: 54230.137655 0003 0000 821
E: 54230.137656 0003 0001 1021
E: 54230.137657 0003 0018 50
E: 54230.137658 0000 0000 0
E: 54230.144740 0003 0035 828
E: 54230.144742 0003 0036 1002
E: 54230.144745 0003 0030 254
E: 54230.144748 0003 002f 1
E: 54230.144748 0003 0039 18093
E: 54230.144750 0003 0035 162
E: 54230.144751 0003 0036 1295
E: 54230.144752 0003 003a 35
E: 54230.144754 0003 0030 220
E: 54230.144757 0001 0145 0
E: 54230.144759 0001 014d 1
E: 54230.144761 0003 0000 828
E: 54230.144763 0003 0001 1002
E: 54230.144765 0000 0000 0
E: 54230.151382 0003 002f 0
E: 54230.151383 0003 0035 834
E: 54230.151384 0003 0036 981
E: 54230.151385 0003 003a 51
E: 54230.151387 0003 0030 180
E: 54230.151393 0003 002f 1
E: 54230.151393 0003 003a 38
E: 54230.151394 0003 0030 254
E: 54230.151400 0003 0000 834
E: 54230.151402 0003 0001 981
E: 54230.151403 0003 0018 51
E: 54230.151404 0000 0000 0
E: 54230.158022 0003 002f 0
E: 54230.158024 0003 0035 837
E: 54230.158025 0003 0036 960
E: 54230.158033 0003 002f 1
E: 54230.158034 0003 003a 42
E: 54230.158041 0003 0000 837
E: 54230.158042 0003 0001 960
E: 54230.158045 0000 0000 0
E: 54230.164731 0003 002f 0
E: 54230.164732 0003 0035 843
E: 54230.164734 0003 0036 944
E: 54230.164735 0003 003a 55
E: 54230.164736 0003 0030 220
E: 54230.164742 0003 002f 1
E: 54230.164743 0003 003a 39
E: 54230.164750 0003 0000 843
E: 54230.164751 0003 0001 944
E: 54230.164752 0003 0018 55
E: 54230.164753 0000 0000 0
E: 54230.171405 0003 002f 0
E: 54230.171407 0003 0035 845
E: 54230.171408 0003 0036 932
E: 54230.171409 0003 003a 53
E: 54230.171417 0003 002f 1
E: 54230.171417 0003 003a 44
E: 54230.171424 0003 0000 845
E: 54230.171426 0003 0001 932
E: 54230.171427 0003 0018 53
E: 54230.171428 0000 0000 0
E: 54230.178227 0003 002f 0
E: 54230.178229 0003 0035 847
E: 54230.178230 0003 0036 924
E: 54230.178238 0003 002f 1
E: 54230.178238 0003 003a 42
E: 54230.178245 0003 0000 847
E: 54230.178246 0003 0001 924
E: 54230.178249 0000 0000 0
E: 54230.184799 0003 002f 0
E: 54230.184800 0003 0035 850
E: 54230.184802 0003 0036 918
E: 54230.184803 0003 003a 50
E: 54230.184810 0003 002f 1
E: 54230.184810 0003 003a 48
E: 54230.184817 0003 0000 850
E: 54230.184818 0003 0001 918
E: 54230.184820 0003 0018 50
E: 54230.184821 0000 0000 0
E: 54230.191063 0003 002f 0
E: 54230.191064 0003 0035 852
E: 54230.191065 0003 0036 914
E: 54230.191073 0003 0000 852
E: 54230.191074 0003 0001 914
E: 54230.191077 0000 0000 0
E: 54230.198138 0003 0036 912
E: 54230.198140 0003 003a 48
E: 54230.198147 0003 002f 1
E: 54230.198148 0003 003a 45
E: 54230.198156 0003 0001 912
E: 54230.198157 0003 0018 48
E: 54230.198158 0000 0000 0
E: 54230.204875 0003 002f 0
E: 54230.204877 0003 0036 910
E: 54230.204886 0003 002f 1
E: 54230.204886 0003 003a 47
E: 54230.204894 0003 0001 910
E: 54230.204897 0000 0000 0
E: 54230.211200 0003 002f 0
E: 54230.211201 0003 0036 909
E: 54230.211209 0003 0001 909
E: 54230.211211 0000 0000 0
E: 54230.218268 0003 003a 47
E: 54230.218276 0003 002f 1
E: 54230.218277 0003 003a 51
E: 54230.218286 0003 0018 47
E: 54230.218287 0000 0000 0
E: 54230.224826 0003 002f 0
E: 54230.224827 0003 0036 908
E: 54230.224832 0003 0030 180
E: 54230.224840 0003 002f 1
E: 54230.224841 0003 0035 161
E: 54230.224844 0003 003a 54
E: 54230.224857 0003 0001 908
E: 54230.224862 0000 0000 0
E: 54230.231375 0003 002f 0
E: 54230.231376 0003 0036 909
E: 54230.231377 0003 003a 46
E: 54230.231384 0003 002f 1
E: 54230.231384 0003 003a 51
E: 54230.231393 0003 0001 909
E: 54230.231395 0003 0018 46
E: 54230.231396 0000 0000 0
E: 54230.237697 0003 002f 0
E: 54230.237698 0003 0035 850
E: 54230.237700 0003 0036 910
E: 54230.237709 0003 0000 850
E: 54230.237710 0003 0001 910
E: 54230.237712 0000 0000 0
E: 54230.244656 0003 0035 847
E: 54230.244658 0003 0036 915
E: 54230.244659 0003 003a 51
E: 54230.244660 0003 0030 220
E: 54230.244667 0003 002f 1
E: 54230.244667 0003 0036 1294
E: 54230.244668 0003 003a 54
E: 54230.244676 0003 0000 847
E: 54230.244677 0003 0001 915
E: 54230.244678 0003 0018 51
E: 54230.244680 0000 0000 0
E: 54230.251310 0003 002f 0
E: 54230.251311 0003 0035 840
E: 54230.251312 0003 0036 922
E: 54230.251314 0003 003a 47
E: 54230.251321 0003 002f 1
E: 54230.251321 0003 003a 55
E: 54230.251329 0003 0000 840
E: 54230.251330 0003 0001 922
E: 54230.251331 0003 0018 47
E: 54230.251333 0000 0000 0
E: 54230.257871 0003 002f 0
E: 54230.257872 0003 0035 829
E: 54230.257874 0003 0036 936
E: 54230.257875 0003 003a 52
E: 54230.257876 0003 0030 180
E: 54230.257882 0003 002f 1
E: 54230.257882 0003 003a 52
E: 54230.257890 0003 0000 829
E: 54230.257891 0003 0001 936
E: 54230.257892 0003 0018 52
E: 54230.257894 0000 0000 0
E: 54230.264400 0003 002f 0
E: 54230.264401 0003 0035 814
E: 54230.264402 0003 0036 960
E: 54230.264403 0003 003a 51
E: 54230.264411 0003 002f 1
E: 54230.264411 0003 003a 53
E: 54230.264418 0003 0000 814
E: 54230.264419 0003 0001 960
E: 54230.264421 0003 0018 51
E: 54230.264422 0000 0000 0
E: 54230.271194 0003 002f 0
E: 54230.271196 0003 0035 801
E: 54230.271197 0003 0036 981
E: 54230.271198 0003 003a 50
E: 54230.271199 0003 0030 220
E: 54230.271206 0003 002f 1
E: 54230.271206 0003 003a 51
E: 54230.271213 0003 0000 801
E: 54230.271214 0003 0001 981
E: 54230.271216 0003 0018 50
E: 54230.271217 0000 0000 0
E: 54230.277853 0003 002f 0
E: 54230.277854 0003 0035 792
E: 54230.277856 0003 0036 996
E: 54230.277857 0003 003a 47
E: 54230.277858 0003 0030 254
E: 54230.277864 0003 002f 1
E: 54230.277865 0003 003a 54
E: 54230.277872 0003 0000 792
E: 54230.277873 0003 0001 996
E: 54230.277874 0003 0018 47
E: 54230.277875 0000 0000 0
E: 54230.284370 0003 002f 0
E: 54230.284371 0003 0035 788
E: 54230.284372 0003 0036 1005
E: 54230.284374 0003 003a 49
E: 54230.284379 0003 002f 1
E: 54230.284379 0003 0035 160
E: 54230.284381 0003 003a 56
E: 54230.284388 0003 0000 788
E: 54230.284389 0003 0001 1005
E: 54230.284391 0003 0018 49
E: 54230.284392 0000 0000 0
E: 54230.291083 0003 002f 0
E: 54230.291084 0003 0035 786
E: 54230.291085 0003 0036 1016
E: 54230.291086 0003 003a 51
E: 54230.291093 0003 002f 1
E: 54230.291094 0003 003a 51
E: 54230.291101 0003 0000 786
E: 54230.291102 0003 0001 1016
E: 54230.291103 0003 0018 51
E: 54230.291104 0000 0000 0
E: 54230.297776 0003 002f 0
E: 54230.297778 0003 0035 780
E: 54230.297779 0003 0036 1027
E: 54230.297780 0003 003a 53
E: 54230.297786 0003 002f 1
E: 54230.297787 0003 0036 1293
E: 54230.297788 0003 003a 50
E: 54230.297795 0003 0000 780
E: 54230.297797 0003 0001 1027
E: 54230.297798 0003 0018 53
E: 54230.297799 0000 0000 0
E: 54230.304359 0003 002f 0
E: 54230.304360 0003 0035 779
E: 54230.304362 0003 0036 1036
E: 54230.304370 0003 002f 1
E: 54230.304370 0003 003a 49
E: 54230.304377 0003 0000 779
E: 54230.304378 0003 0001 1036
E: 54230.304381 0000 0000 0
E: 54230.310956 0003 002f 0
E: 54230.310957 0003 0035 778
E: 54230.310959 0003 0036 1045
E: 54230.310960 0003 003a 52
E: 54230.310967 0003 002f 1
E: 54230.310967 0003 003a 51
E: 54230.310974 0003 0000 778
E: 54230.310975 0003 0001 1045
E: 54230.310976 0003 0018 52
E: 54230.310978 0000 0000 0
E: 54230.317574 0003 002f 0
E: 54230.317575 0003 0036 1054
E: 54230.317576 0003 003a 49
E: 54230.317578 0003 0030 220
E: 54230.317584 0003 002f 1
E: 54230.317584 0003 003a 54
E: 54230.317592 0003 0001 1054
E: 54230.317593 0003 0018 49
E: 54230.317595 0000 0000 0
E: 54230.325041 0003 002f 0
E: 54230.325042 0003 0035 776
E: 54230.325043 0003 0036 1061
E: 54230.325045 0003 003a 51
E: 54230.325051 0003 002f 1
E: 54230.325052 0003 003a 52
E: 54230.325058 0003 0000 776
E: 54230.325059 0003 0001 1061
E: 54230.325061 0003 0018 51
E: 54230.325062 0000 0000 0
E: 54230.331757 0003 002f 0
E: 54230.331758 0003 0035 774
E: 54230.331759 0003 0036 1070
E: 54230.331760 0003 003a 52
E: 54230.331761 0003 0030 180
E: 54230.331766 0003 002f 1
E: 54230.331766 0003 0035 161
E: 54230.331768 0003 003a 51
E: 54230.331775 0003 0000 774
E: 54230.331776 0003 0001 1070
E: 54230.331777 0003 0018 52
E: 54230.331779 0000 0000 0
E: 54230.338352 0003 002f 0
E: 54230.338353 0003 0035 775
E: 54230.338355 0003 0036 1079
E: 54230.338356 0003 003a 47
E: 54230.338361 0003 002f 1
E: 54230.338362 0003 0035 160
E: 54230.338364 0003 003a 53
E: 54230.338371 0003 0000 775
E: 54230.338372 0003 0001 1079
E: 54230.338373 0003 0018 47
E: 54230.338374 0000 0000 0
E: 54230.345016 0003 002f 0
E: 54230.345017 0003 0035 774
E: 54230.345018 0003 0036 1089
E: 54230.345019 0003 003a 54
E: 54230.345020 0003 0030 254
E: 54230.345026 0003 002f 1
E: 54230.345027 0003 003a 55
E: 54230.345034 0003 0000 774
E: 54230.345035 0003 0001 1089
E: 54230.345036 0003 0018 54
E: 54230.345037 0000 0000 0
E: 54230.351632 0003 002f 0
E: 54230.351633 0003 0036 1097
E: 54230.351635 0003 003a 52
E: 54230.351641 0003 002f 1
E: 54230.351641 0003 0036 1292
E: 54230.351650 0003 0001 1097
E: 54230.351651 0003 0018 52
E: 54230.351652 0000 0000 0
E: 54230.358287 0003 002f 0
E: 54230.358288 0003 0036 1104
E: 54230.358296 0003 002f 1
E: 54230.358297 0003 003a 57
E: 54230.358304 0003 0001 1104
E: 54230.358307 0000 0000 0
E: 54230.365035 0003 002f 0
E: 54230.365037 0003 0035 775
E: 54230.365038 0003 0036 1112
E: 54230.365040 0003 003a 49
E: 54230.365047 0003 002f 1
E: 54230.365047 0003 003a 56
E: 54230.365055 0003 0000 775
E: 54230.365056 0003 0001 1112
E: 54230.365057 0003 0018 49
E: 54230.365058 0000 0000 0
E: 54230.371640 0003 002f 0
E: 54230.371641 0003 0036 1120
E: 54230.371643 0003 003a 50
E: 54230.371650 0003 002f 1
E: 54230.371650 0003 003a 52
E: 54230.371659 0003 0001 1120
E: 54230.371660 0003 0018 50
E: 54230.371661 0000 0000 0
E: 54230.378161 0003 002f 0
E: 54230.378162 0003 0036 1125
E: 54230.378164 0003 003a 56
E: 54230.378171 0003 002f 1
E: 54230.378171 0003 003a 51
E: 54230.378180 0003 0001 1125
E: 54230.378181 0003 0018 56
E: 54230.378182 0000 0000 0
E: 54230.384909 0003 002f 0
E: 54230.384911 0003 0035 776
E: 54230.384912 0003 0036 1133
E: 54230.384913 0003 003a 50
E: 54230.384920 0003 002f 1
E: 54230.384921 0003 003a 55
E: 54230.384928 0003 0000 776
E: 54230.384929 0003 0001 1133
E: 54230.384931 0003 0018 50
E: 54230.384932 0000 0000 0
E: 54230.391539 0003 002f 0
E: 54230.391541 0003 0035 777
E: 54230.391542 0003 0036 1139
E: 54230.391544 0003 003a 52
E: 54230.391551 0003 002f 1
E: 54230.391551 0003 003a 52
E: 54230.391558 0003 0000 777
E: 54230.391559 0003 0001 1139
E: 54230.391560 0003 0018 52
E: 54230.391562 0000 0000 0
E: 54230.397831 0003 002f 0
E: 54230.397832 0003 0036 1144
E: 54230.397834 0003 003a 55
E: 54230.397843 0003 0001 1144
E: 54230.397844 0003 0018 55
E: 54230.397845 0000 0000 0
E: 54230.404771 0003 0036 1149
E: 54230.404773 0003 003a 51
E: 54230.404780 0003 002f 1
E: 54230.404780 0003 003a 54
E: 54230.404789 0003 0001 1149
E: 54230.404791 0003 0018 51
E: 54230.404792 0000 0000 0
E: 54230.411353 0003 002f 0
E: 54230.411354 0003 0036 1153
E: 54230.411363 0003 002f 1
E: 54230.411363 0003 003a 56
E: 54230.411371 0003 0001 1153
E: 54230.411374 0000 0000 0
E: 54230.417989 0003 002f 0
E: 54230.417990 0003 0036 1158
E: 54230.417991 0003 003a 52
E: 54230.417999 0003 002f 1
E: 54230.417999 0003 003a 57
E: 54230.418018 0003 0001 1158
E: 54230.418020 0003 0018 52
E: 54230.418022 0000 0000 0
E: 54230.424647 0003 002f 0
E: 54230.424649 0003 0035 778
E: 54230.424650 0003 0036 1165
E: 54230.424651 0003 003a 50
E: 54230.424659 0003 002f 1
E: 54230.424659 0003 003a 53
E: 54230.424666 0003 0000 778
E: 54230.424667 0003 0001 1165
E: 54230.424668 0003 0018 50
E: 54230.424670 0000 0000 0
E: 54230.431225 0003 002f 0
E: 54230.431226 0003 0036 1171
E: 54230.431227 0003 003a 51
E: 54230.431235 0003 002f 1
E: 54230.431235 0003 003a 56
E: 54230.431244 0003 0001 1171
E: 54230.431245 0003 0018 51
E: 54230.431246 0000 0000 0
E: 54230.437774 0003 002f 0
E: 54230.437775 0003 0036 1177
E: 54230.437788 0003 003a 52
E: 54230.437789 0003 0030 220
E: 54230.437794 0003 002f 1
E: 54230.437794 0003 003a 55
E: 54230.437801 0003 0001 1177
E: 54230.437802 0003 0018 52
E: 54230.437803 0000 0000 0
E: 54230.444474 0003 002f 0
E: 54230.444475 0003 0035 775
E: 54230.444476 0003 0036 1188
E: 54230.444477 0003 003a 51
E: 54230.444479 0003 0030 180
E: 54230.444483 0003 002f 1
E: 54230.444483 0003 0035 159
E: 54230.444485 0003 003a 51
E: 54230.444492 0003 0000 775
E: 54230.444494 0003 0001 1188
E: 54230.444495 0003 0018 51
E: 54230.444496 0000 0000 0
E: 54230.451109 0003 002f 0
E: 54230.451110 0003 0035 773
E: 54230.451111 0003 0036 1201
E: 54230.451113 0003 003a 52
E: 54230.451114 0003 0030 220
E: 54230.451120 0003 002f 1
E: 54230.451120 0003 003a 56
E: 54230.451127 0003 0000 773
E: 54230.451128 0003 0001 1201
E: 54230.451129 0003 0018 52
E: 54230.451130 0000 0000 0
E: 54230.457791 0003 002f 0
E: 54230.457793 0003 0035 770
E: 54230.457794 0003 0036 1215
E: 54230.457795 0003 003a 49
E: 54230.457796 0003 0030 254
E: 54230.457803 0003 002f 1
E: 54230.457803 0003 003a 53
E: 54230.457811 0003 0000 770
E: 54230.457812 0003 0001 1215
E: 54230.457813 0003 0018 49
E: 54230.457815 0000 0000 0
E: 54230.464457 0003 002f 0
E: 54230.464458 0003 0035 766
E: 54230.464459 0003 0036 1231
E: 54230.464467 0003 002f 1
E: 54230.464467 0003 003a 56
E: 54230.464474 0003 0000 766
E: 54230.464476 0003 0001 1231
E: 54230.464478 0000 0000 0
E: 54230.471114 0003 002f 0
E: 54230.471116 0003 0035 761
E: 54230.471117 0003 0036 1249
E: 54230.471118 0003 003a 51
E: 54230.471126 0003 002f 1
E: 54230.471126 0003 003a 57
E: 54230.471133 0003 0000 761
E: 54230.471134 0003 0001 1249
E: 54230.471136 0003 0018 51
E: 54230.471137 0000 0000 0
E: 54230.478092 0003 002f 0
E: 54230.478093 0003 0035 757
E: 54230.478094 0003 0036 1267
E: 54230.478095 0003 003a 46
E: 54230.478102 0003 002f 1
E: 54230.478103 0003 003a 53
E: 54230.478109 0003 0000 757
E: 54230.478111 0003 0001 1267
E: 54230.478112 0003 0018 46
E: 54230.478113 0000 0000 0
E: 54230.485198 0003 002f 0
E: 54230.485199 0003 0035 755
E: 54230.485200 0003 0036 1279
E: 54230.485202 0003 003a 45
E: 54230.485203 0003 0030 220
E: 54230.485210 0003 002f 1
E: 54230.485210 0003 003a 54
E: 54230.485217 0003 0000 755
E: 54230.485218 0003 0001 1279
E: 54230.485219 0003 0018 45
E: 54230.485221 0000 0000 0
E: 54230.491673 0003 002f 0
E: 54230.491674 0003 0035 754
E: 54230.491675 0003 0036 1288
E: 54230.491676 0003 003a 43
E: 54230.491683 0003 0000 754
E: 54230.491685 0003 0001 1288
E: 54230.491686 0003 0018 43
E: 54230.491687 0000 0000 0
E: 54230.499021 0003 0035 752
E: 54230.499022 0003 0036 1295
E: 54230.499030 0003 002f 1
E: 54230.499031 0003 003a 55
E: 54230.499038 0003 0000 752
E: 54230.499039 0003 0001 1295
E: 54230.499041 0000 0000 0
E: 54230.506039 0003 002f 0
E: 54230.506040 0003 0035 751
E: 54230.506042 0003 0036 1300
E: 54230.506043 0003 003a 42
E: 54230.506050 0003 002f 1
E: 54230.506051 0003 003a 52
E: 54230.506058 0003 0000 751
E: 54230.506059 0003 0001 1300
E: 54230.506061 0003 0018 42
E: 54230.506062 0000 0000 0
E: 54230.512910 0003 002f 0
E: 54230.512911 0003 0035 750
E: 54230.512913 0003 0036 1303
E: 54230.512914 0003 003a 40
E: 54230.512921 0003 002f 1
E: 54230.512921 0003 003a 56
E: 54230.512928 0003 0000 750
E: 54230.512929 0003 0001 1303
E: 54230.512931 0003 0018 40
E: 54230.512932 0000 0000 0
E: 54230.520742 0003 002f 0
E: 54230.520743 0003 0036 1305
E: 54230.520744 0003 003a 42
E: 54230.520753 0003 002f 1
E: 54230.520754 0003 003a 53
E: 54230.520761 0003 0001 1305
E: 54230.520762 0003 0018 42
E: 54230.520764 0000 0000 0
E: 54230.527745 0003 002f 0
E: 54230.527746 0003 0036 1306
E: 54230.527747 0003 003a 45
E: 54230.527754 0003 002f 1
E: 54230.527754 0003 003a 55
E: 54230.527763 0003 0001 1306
E: 54230.527764 0003 0018 45
E: 54230.527765 0000 0000 0
E: 54230.534754 0003 002f 0
E: 54230.534755 0003 0035 749
E: 54230.534756 0003 0036 1308
E: 54230.534764 0003 002f 1
E: 54230.534765 0003 003a 52
E: 54230.534772 0003 0000 749
E: 54230.534773 0003 0001 1308
E: 54230.534775 0000 0000 0
E: 54230.541723 0003 002f 0
E: 54230.541725 0003 0036 1309
E: 54230.541736 0003 002f 1
E: 54230.541736 0003 003a 58
E: 54230.541747 0003 0001 1309
E: 54230.541750 0000 0000 0
E: 54230.548662 0003 002f 0
E: 54230.548663 0003 003a 47
E: 54230.548670 0003 002f 1
E: 54230.548670 0003 003a 56
E: 54230.548679 0003 0018 47
E: 54230.548680 0000 0000 0
E: 54230.555597 0003 002f 0
E: 54230.555598 0003 003a 49
E: 54230.555605 0003 002f 1
E: 54230.555606 0003 003a 53
E: 54230.555614 0003 0018 49
E: 54230.555616 0000 0000 0
E: 54230.562532 0003 002f 0
E: 54230.562533 0003 0035 748
E: 54230.562534 0003 0036 1310
E: 54230.562535 0003 003a 50
E: 54230.562543 0003 002f 1
E: 54230.562543 0003 003a 56
E: 54230.562550 0003 0000 748
E: 54230.562551 0003 0001 1310
E: 54230.562552 0003 0018 50
E: 54230.562553 0000 0000 0
E: 54230.569175 0003 002f 0
E: 54230.569176 0003 003a 51
E: 54230.569177 0003 0030 254
E: 54230.569185 0003 0018 51
E: 54230.569186 0000 0000 0
E: 54230.576073 0003 003a 50
E: 54230.576081 0003 0018 50
E: 54230.576083 0000 0000 0
E: 54230.590365 0003 003a 52
E: 54230.590368 0001 0110 1
E: 54230.590375 0003 0018 52
E: 54230.590377 0000 0000 0
E: 54230.597406 0003 0035 747
E: 54230.597408 0003 0036 1309
E: 54230.597420 0003 002f 1
E: 54230.597420 0003 003a 55
E: 54230.597430 0003 0000 747
E: 54230.597431 0003 0001 1309
E: 54230.597434 0000 0000 0
E: 54230.604069 0003 002f 0
E: 54230.604070 0003 003a 54
E: 54230.604078 0003 002f 1
E: 54230.604079 0003 003a 56
E: 54230.604088 0003 0018 54
E: 54230.604090 0000 0000 0
E: 54230.610662 0003 002f 0
E: 54230.610663 0003 003a 53
E: 54230.610671 0003 002f 1
E: 54230.610671 0003 003a 57
E: 54230.610681 0003 0018 53
E: 54230.610682 0000 0000 0
E: 54230.617341 0003 002f 0
E: 54230.617343 0003 0035 746
E: 54230.617344 0003 0036 1307
E: 54230.617345 0003 003a 55
E: 54230.617353 0003 002f 1
E: 54230.617353 0003 003a 60
E: 54230.617360 0003 0000 746
E: 54230.617361 0003 0001 1307
E: 54230.617363 0003 0018 55
E: 54230.617364 0000 0000 0
E: 54230.624022 0003 002f 0
E: 54230.624023 0003 0036 1306
E: 54230.624025 0003 003a 57
E: 54230.624032 0003 002f 1
E: 54230.624032 0003 003a 59
E: 54230.624040 0003 0001 1306
E: 54230.624041 0003 0018 57
E: 54230.624043 0000 0000 0
E: 54230.630574 0003 002f 0
E: 54230.630575 0003 0035 747
E: 54230.630576 0003 0036 1304
E: 54230.630577 0003 003a 56
E: 54230.630578 0003 0030 220
E: 54230.630583 0003 002f 1
E: 54230.630583 0003 003a 58
E: 54230.630589 0003 0000 747
E: 54230.630590 0003 0001 1304
E: 54230.630591 0003 0018 56
E: 54230.630592 0000 0000 0
E: 54230.637338 0003 002f 0
E: 54230.637340 0003 0036 1301
E: 54230.637341 0003 003a 52
E: 54230.637348 0003 002f 1
E: 54230.637349 0003 003a 57
E: 54230.637357 0003 0001 1301
E: 54230.637358 0003 0018 52
E: 54230.637359 0000 0000 0
E: 54230.643946 0003 002f 0
E: 54230.643947 0003 0035 749
E: 54230.643949 0003 0036 1295
E: 54230.643951 0003 0030 180
E: 54230.643957 0003 002f 1
E: 54230.643957 0003 003a 55
E: 54230.643965 0003 0000 749
E: 54230.643966 0003 0001 1295
E: 54230.643968 0000 0000 0
E: 54230.650571 0003 002f 0
E: 54230.650572 0003 0035 752
E: 54230.650574 0003 0036 1286
E: 54230.650582 0003 002f 1
E: 54230.650582 0003 003a 59
E: 54230.650589 0003 0000 752
E: 54230.650590 0003 0001 1286
E: 54230.650592 0000 0000 0
E: 54230.656793 0003 002f 0
E: 54230.656794 0003 0035 757
E: 54230.656796 0003 0036 1272
E: 54230.656797 0003 003a 50
E: 54230.656798 0003 0030 220
E: 54230.656805 0003 0000 757
E: 54230.656806 0003 0001 1272
E: 54230.656807 0003 0018 50
E: 54230.656809 0000 0000 0
E: 54230.663806 0003 0035 764
E: 54230.663808 0003 0036 1258
E: 54230.663809 0003 003a 54
E: 54230.663811 0003 0030 254
E: 54230.663817 0003 002f 1
E: 54230.663817 0003 003a 63
E: 54230.663825 0003 0000 764
E: 54230.663827 0003 0001 1258
E: 54230.663829 0003 0018 54
E: 54230.663830 0000 0000 0
E: 54230.670472 0003 002f 0
E: 54230.670473 0003 0035 772
E: 54230.670474 0003 0036 1241
E: 54230.670475 0003 003a 52
E: 54230.670481 0003 002f 1
E: 54230.670481 0003 0035 158
E: 54230.670483 0003 003a 61
E: 54230.670490 0003 0000 772
E: 54230.670491 0003 0001 1241
E: 54230.670493 0003 0018 52
E: 54230.670494 0000 0000 0
E: 54230.677198 0003 002f 0
E: 54230.677199 0003 0035 780
E: 54230.677200 0003 0036 1227
E: 54230.677202 0003 003a 53
E: 54230.677209 0003 002f 1
E: 54230.677209 0003 003a 63
E: 54230.677216 0003 0000 780
E: 54230.677217 0003 0001 1227
E: 54230.677218 0003 0018 53
E: 54230.677220 0000 0000 0
E: 54230.683790 0003 002f 0
E: 54230.683791 0003 0035 784
E: 54230.683792 0003 0036 1218
E: 54230.683794 0003 003a 51
E: 54230.683801 0003 002f 1
E: 54230.683801 0003 003a 62
E: 54230.683808 0003 0000 784
E: 54230.683810 0003 0001 1218
E: 54230.683811 0003 0018 51
E: 54230.683812 0000 0000 0
E: 54230.690502 0003 002f 0
E: 54230.690503 0003 0035 787
E: 54230.690505 0003 0036 1212
E: 54230.690513 0003 002f 1
E: 54230.690513 0003 003a 60
E: 54230.690520 0003 0000 787
E: 54230.690522 0003 0001 1212
E: 54230.690524 0000 0000 0
E: 54230.697058 0003 002f 0
E: 54230.697059 0003 0035 790
E: 54230.697060 0003 0036 1208
E: 54230.697062 0003 003a 52
E: 54230.697069 0003 002f 1
E: 54230.697069 0003 003a 56
E: 54230.697076 0003 0000 790
E: 54230.697077 0003 0001 1208
E: 54230.697079 0003 0018 52
E: 54230.697080 0000 0000 0
E: 54230.703744 0003 002f 0
E: 54230.703746 0003 0036 1207
E: 54230.703748 0003 003a 48
E: 54230.703755 0003 002f 1
E: 54230.703756 0003 003a 63
E: 54230.703764 0003 0001 1207
E: 54230.703766 0003 0018 48
E: 54230.703767 0000 0000 0
E: 54230.710369 0003 002f 0
E: 54230.710371 0003 0035 791
E: 54230.710384 0003 0036 1206
E: 54230.710385 0003 003a 50
E: 54230.710391 0003 002f 1
E: 54230.710391 0003 003a 62
E: 54230.710397 0003 0000 791
E: 54230.710398 0003 0001 1206
E: 54230.710399 0003 0018 50
E: 54230.710400 0000 0000 0
E: 54230.718030 0003 002f 0
E: 54230.718031 0003 0035 792
E: 54230.718033 0003 0036 1205
E: 54230.718034 0003 003a 49
E: 54230.718041 0003 002f 1
E: 54230.718041 0003 003a 60
E: 54230.718049 0003 0000 792
E: 54230.718050 0003 0001 1205
E: 54230.718051 0003 0018 49
E: 54230.718053 0000 0000 0
E: 54230.724555 0003 002f 0
E: 54230.724557 0003 0036 1204
E: 54230.724558 0003 003a 51
E: 54230.724565 0003 002f 1
E: 54230.724566 0003 003a 59
E: 54230.724574 0003 0001 1204
E: 54230.724575 0003 0018 51
E: 54230.724576 0000 0000 0
E: 54230.731147 0003 002f 0
E: 54230.731148 0003 003a 49
E: 54230.731155 0003 002f 1
E: 54230.731156 0003 003a 60
E: 54230.731165 0003 0018 49
E: 54230.731166 0000 0000 0
E: 54230.737870 0003 002f 0
E: 54230.737872 0003 0035 793
E: 54230.737874 0003 003a 47
E: 54230.737883 0003 002f 1
E: 54230.737883 0003 003a 61
E: 54230.737893 0003 0000 793
E: 54230.737895 0003 0018 47
E: 54230.737898 0000 0000 0
E: 54230.744512 0003 002f 0
E: 54230.744513 0003 003a 46
E: 54230.744514 0003 0030 220
E: 54230.744521 0003 002f 1
E: 54230.744521 0003 003a 58
E: 54230.744530 0003 0018 46
E: 54230.744532 0000 0000 0
E: 54230.751140 0003 002f 0
E: 54230.751141 0003 003a 51
E: 54230.751142 0003 0030 254
E: 54230.751149 0003 002f 1
E: 54230.751149 0003 003a 62
E: 54230.751158 0003 0018 51
E: 54230.751159 0000 0000 0
E: 54230.757803 0003 002f 0
E: 54230.757805 0003 003a 49
E: 54230.757806 0003 0030 220
E: 54230.757812 0003 002f 1
E: 54230.757813 0003 003a 56
E: 54230.757822 0003 0018 49
E: 54230.757823 0000 0000 0
E: 54230.764141 0003 003a 64
E: 54230.764152 0000 0000 0
E: 54230.771148 0003 002f 0
E: 54230.771150 0003 0036 1205
E: 54230.771158 0003 002f 1
E: 54230.771158 0003 003a 59
E: 54230.771167 0003 0001 1205
E: 54230.771169 0000 0000 0
E: 54230.777817 0003 002f 0
E: 54230.777818 0003 003a 50
E: 54230.777819 0003 0030 254
E: 54230.777825 0003 002f 1
E: 54230.777826 0003 003a 55
E: 54230.777835 0003 0018 50
E: 54230.777836 0000 0000 0
E: 54230.784442 0003 002f 0
E: 54230.784443 0003 003a 51
E: 54230.784444 0003 0030 220
E: 54230.784451 0003 002f 1
E: 54230.784451 0003 003a 58
E: 54230.784460 0003 0018 51
E: 54230.784461 0000 0000 0
E: 54230.791042 0003 002f 0
E: 54230.791044 0003 003a 50
E: 54230.791045 0003 0030 254
E: 54230.791051 0003 002f 1
E: 54230.791051 0003 003a 55
E: 54230.791060 0003 0018 50
E: 54230.791062 0000 0000 0
E: 54230.797721 0003 002f 0
E: 54230.797722 0003 003a 51
E: 54230.797723 0003 0030 220
E: 54230.797729 0003 002f 1
E: 54230.797730 0003 003a 60
E: 54230.797739 0003 0018 51
E: 54230.797740 0000 0000 0
E: 54230.804401 0003 002f 0
E: 54230.804402 0003 003a 52
E: 54230.804404 0003 0030 254
E: 54230.804410 0003 002f 1
E: 54230.804411 0003 003a 58
E: 54230.804420 0003 0018 52
E: 54230.804422 0000 0000 0
E: 54230.810958 0003 002f 0
E: 54230.810959 0003 0036 1206
E: 54230.810966 0003 002f 1
E: 54230.810967 0003 0036 1291
E: 54230.810968 0003 003a 61
E: 54230.810976 0003 0001 1206
E: 54230.810979 0000 0000 0
E: 54230.817750 0003 002f 0
E: 54230.817751 0003 003a 50
E: 54230.817759 0003 002f 1
E: 54230.817759 0003 003a 55
E: 54230.817768 0003 0018 50
E: 54230.817769 0000 0000 0
E: 54230.824239 0003 002f 0
E: 54230.824240 0003 003a 51
E: 54230.824247 0003 002f 1
E: 54230.824247 0003 003a 56
E: 54230.824256 0003 0018 51
E: 54230.824257 0000 0000 0
E: 54230.830943 0003 002f 0
E: 54230.830944 0003 003a 49
E: 54230.830953 0003 002f 1
E: 54230.830954 0003 003a 55
E: 54230.830965 0003 0018 49
E: 54230.830966 0000 0000 0
E: 54230.837256 0003 002f 0
E: 54230.837257 0003 003a 51
E: 54230.837265 0003 0018 51
E: 54230.837266 0000 0000 0
E: 54230.844233 0003 0035 794
E: 54230.844236 0003 0030 220
E: 54230.844242 0003 002f 1
E: 54230.844242 0003 003a 59
E: 54230.844248 0003 0000 794
E: 54230.844251 0000 0000 0
E: 54230.857547 0003 002f 0
E: 54230.857548 0003 003a 53
E: 54230.857549 0003 0030 254
E: 54230.857555 0003 002f 1
E: 54230.857555 0003 003a 58
E: 54230.857563 0003 0018 53
E: 54230.857564 0000 0000 0
E: 54230.864190 0003 002f 0
E: 54230.864191 0003 003a 52
E: 54230.864192 0003 0030 220
E: 54230.864198 0003 002f 1
E: 54230.864198 0003 003a 61
E: 54230.864206 0003 0018 52
E: 54230.864208 0000 0000 0
E: 54230.870933 0003 002f 0
E: 54230.870934 0003 0036 1207
E: 54230.870935 0003 003a 51
E: 54230.870937 0003 0030 254
E: 54230.870943 0003 002f 1
E: 54230.870943 0003 003a 56
E: 54230.870951 0003 0001 1207
E: 54230.870952 0003 0018 51
E: 54230.870953 0000 0000 0
E: 54230.877482 0003 002f 0
E: 54230.877483 0003 003a 53
E: 54230.877489 0003 002f 1
E: 54230.877489 0003 0036 1292
E: 54230.877490 0003 003a 58
E: 54230.877498 0003 0018 53
E: 54230.877500 0000 0000 0
E: 54230.884164 0003 002f 0
E: 54230.884164 0003 003a 51
E: 54230.884173 0003 002f 1
E: 54230.884173 0003 003a 57
E: 54230.884184 0003 0018 51
E: 54230.884186 0000 0000 0
E: 54230.890858 0003 002f 0
E: 54230.890859 0003 003a 50
E: 54230.890866 0003 002f 1
E: 54230.890866 0003 003a 56
E: 54230.890875 0003 0018 50
E: 54230.890876 0000 0000 0
E: 54230.897196 0003 002f 0
E: 54230.897197 0003 003a 49
E: 54230.897199 0003 0030 220
E: 54230.897207 0003 0018 49
E: 54230.897209 0000 0000 0
E: 54230.904183 0003 003a 48
E: 54230.904191 0003 002f 1
E: 54230.904192 0003 003a 55
E: 54230.904201 0003 0018 48
E: 54230.904202 0000 0000 0
E: 54230.911588 0003 002f 0
E: 54230.911589 0003 003a 50
E: 54230.911597 0003 002f 1
E: 54230.911597 0003 003a 54
E: 54230.911606 0003 0018 50
E: 54230.911608 0000 0000 0
E: 54230.918280 0003 002f 0
E: 54230.918282 0003 003a 46
E: 54230.918289 0003 002f 1
E: 54230.918289 0003 003a 58
E: 54230.918298 0003 0018 46
E: 54230.918300 0000 0000 0
E: 54230.924597 0003 003a 60
E: 54230.924609 0000 0000 0
E: 54230.931231 0003 003a 55
E: 54230.931242 0000 0000 0
E: 54230.937909 0003 003a 58
E: 54230.937921 0000 0000 0
E: 54230.944814 0003 002f 0
E: 54230.944815 0003 003a 47
E: 54230.944822 0003 002f 1
E: 54230.944823 0003 003a 50
E: 54230.944831 0003 0018 47
E: 54230.944833 0000 0000 0
E: 54230.951422 0003 002f 0
E: 54230.951423 0003 0036 1208
E: 54230.951424 0003 003a 49
E: 54230.951429 0003 002f 1
E: 54230.951429 0003 0035 159
E: 54230.951432 0003 003a 54
E: 54230.951439 0003 0001 1208
E: 54230.951440 0003 0018 49
E: 54230.951441 0000 0000 0
E: 54230.958133 0003 002f 0
E: 54230.958134 0003 003a 47
E: 54230.958136 0003 0030 254
E: 54230.958142 0003 002f 1
E: 54230.958142 0003 003a 52
E: 54230.958150 0003 0018 47
E: 54230.958152 0000 0000 0
E: 54230.964866 0003 002f 0
E: 54230.964867 0003 003a 49
E: 54230.964875 0003 002f 1
E: 54230.964875 0003 003a 58
E: 54230.964885 0003 0018 49
E: 54230.964886 0000 0000 0
E: 54230.971418 0003 002f 0
E: 54230.971419 0003 003a 50
E: 54230.971421 0003 0030 220
E: 54230.971427 0003 002f 1
E: 54230.971427 0003 003a 54
E: 54230.971436 0003 0018 50
E: 54230.971437 0000 0000 0
E: 54230.978020 0003 002f 0
E: 54230.978021 0003 003a 49
E: 54230.978022 0003 0030 254
E: 54230.978028 0003 002f 1
E: 54230.978028 0003 003a 58
E: 54230.978037 0003 0018 49
E: 54230.978038 0000 0000 0
E: 54230.984735 0003 002f 0
E: 54230.984736 0003 003a 48
E: 54230.984743 0003 002f 1
E: 54230.984743 0003 003a 60
E: 54230.984752 0003 0018 48
E: 54230.984753 0000 0000 0
E: 54230.991476 0003 002f 0
E: 54230.991477 0003 003a 49
E: 54230.991479 0003 0030 220
E: 54230.991485 0003 002f 1
E: 54230.991485 0003 003a 54
E: 54230.991494 0003 0018 49
E: 54230.991495 0000 0000 0
E: 54230.997952 0003 002f 0
E: 54230.997953 0003 003a 51
E: 54230.997954 0003 0030 254
E: 54230.997960 0003 002f 1
E: 54230.997960 0003 003a 51
E: 54230.997969 0003 0018 51
E: 54230.997970 0000 0000 0
E: 54231.004730 0003 002f 0
E: 54231.004732 0003 003a 48
E: 54231.004733 0003 0030 220
E: 54231.004739 0003 002f 1
E: 54231.004740 0003 003a 56
E: 54231.004749 0003 0018 48
E: 54231.004750 0000 0000 0
E: 54231.011327 0003 002f 0
E: 54231.011328 0003 003a 51
E: 54231.011336 0003 002f 1
E: 54231.011336 0003 003a 60
E: 54231.011345 0003 0018 51
E: 54231.011347 0000 0000 0
E: 54231.017975 0003 002f 0
E: 54231.017976 0003 003a 49
E: 54231.017978 0003 0030 254
E: 54231.017984 0003 002f 1
E: 54231.017985 0003 003a 53
E: 54231.017994 0003 0018 49
E: 54231.017995 0000 0000 0
E: 54231.024221 0003 002f 0
E: 54231.024223 0003 003a 52
E: 54231.024224 0003 0030 220
E: 54231.024232 0003 0018 52
E: 54231.024234 0000 0000 0
E: 54231.031130 0003 003a 49
E: 54231.031132 0003 0030 254
E: 54231.031137 0003 002f 1
E: 54231.031137 0003 0036 1293
E: 54231.031139 0003 003a 54
E: 54231.031147 0003 0018 49
E: 54231.031149 0000 0000 0
E: 54231.037495 0003 003a 55
E: 54231.037506 0000 0000 0
E: 54231.044540 0003 002f 0
E: 54231.044541 0003 003a 51
E: 54231.044542 0003 0030 220
E: 54231.044549 0003 002f 1
E: 54231.044549 0003 003a 57
E: 54231.044559 0003 0018 51
E: 54231.044560 0000 0000 0
E: 54231.051284 0003 002f 0
E: 54231.051285 0003 0036 1209
E: 54231.051287 0003 003a 47
E: 54231.051294 0003 002f 1
E: 54231.051294 0003 003a 55
E: 54231.051303 0003 0001 1209
E: 54231.051304 0003 0018 47
E: 54231.051306 0000 0000 0
E: 54231.057884 0003 002f 0
E: 54231.057885 0003 003a 51
E: 54231.057893 0003 002f 1
E: 54231.057893 0003 003a 50
E: 54231.057902 0003 0018 51
E: 54231.057904 0000 0000 0
E: 54231.064406 0003 002f 0
E: 54231.064407 0003 003a 52
E: 54231.064409 0003 0030 254
E: 54231.064415 0003 002f 1
E: 54231.064415 0003 003a 52
E: 54231.064424 0003 0018 52
E: 54231.064426 0000 0000 0
E: 54231.071075 0003 002f 0
E: 54231.071077 0003 003a 53
E: 54231.071084 0003 002f 1
E: 54231.071084 0003 003a 55
E: 54231.071093 0003 0018 53
E: 54231.071094 0000 0000 0
E: 54231.077440 0003 002f 0
E: 54231.077442 0003 003a 52
E: 54231.077451 0003 0018 52
E: 54231.077452 0000 0000 0
E: 54231.084718 0003 003a 50
E: 54231.084720 0003 0030 220
E: 54231.084726 0003 002f 1
E: 54231.084727 0003 003a 56
E: 54231.084729 0001 0110 0
E: 54231.084737 0003 0018 50
E: 54231.084739 0000 0000 0
E: 54231.090692 0003 002f 0
E: 54231.090693 0003 003a 48
E: 54231.090703 0003 0018 48
E: 54231.090704 0000 0000 0
E: 54231.097582 0003 003a 47
E: 54231.097589 0003 002f 1
E: 54231.097589 0003 003a 52
E: 54231.097598 0003 0018 47
E: 54231.097599 0000 0000 0
E: 54231.104250 0003 002f 0
E: 54231.104251 0003 003a 49
E: 54231.104258 0003 002f 1
E: 54231.104258 0003 003a 51
E: 54231.104266 0003 0018 49
E: 54231.104268 0000 0000 0
E: 54231.111810 0003 002f 0
E: 54231.111811 0003 003a 47
E: 54231.111818 0003 002f 1
E: 54231.111818 0003 0036 1294
E: 54231.111819 0003 003a 52
E: 54231.111828 0003 0018 47
E: 54231.111829 0000 0000 0
E: 54231.118441 0003 002f 0
E: 54231.118442 0003 003a 46
E: 54231.118448 0003 002f 1
E: 54231.118449 0003 003a 48
E: 54231.118457 0003 0018 46
E: 54231.118458 0000 0000 0
E: 54231.125177 0003 002f 0
E: 54231.125178 0003 003a 47
E: 54231.125185 0003 002f 1
E: 54231.125185 0003 003a 47
E: 54231.125194 0003 0018 47
E: 54231.125195 0000 0000 0
E: 54231.131791 0003 002f 0
E: 54231.131792 0003 003a 46
E: 54231.131797 0003 002f 1
E: 54231.131798 0003 0035 160
E: 54231.131800 0003 003a 46
E: 54231.131808 0003 0018 46
E: 54231.131809 0000 0000 0
E: 54231.138531 0003 002f 0
E: 54231.138532 0003 0036 1210
E: 54231.138533 0003 003a 45
E: 54231.138541 0003 002f 1
E: 54231.138541 0003 003a 47
E: 54231.138549 0003 0001 1210
E: 54231.138550 0003 0018 45
E: 54231.138551 0000 0000 0
E: 54231.144913 0003 0036 1295
E: 54231.144915 0003 003a 41
E: 54231.144925 0000 0000 0
E: 54231.151556 0003 003a 45
E: 54231.151566 0000 0000 0
E: 54231.158633 0003 002f 0
E: 54231.158634 0003 003a 42
E: 54231.158641 0003 002f 1
E: 54231.158642 0003 003a 46
E: 54231.158650 0003 0018 42
E: 54231.158652 0000 0000 0
E: 54231.165244 0003 002f 0
E: 54231.165245 0003 003a 48
E: 54231.165252 0003 002f 1
E: 54231.165253 0003 003a 50
E: 54231.165261 0003 0018 48
E: 54231.165263 0000 0000 0
E: 54231.171975 0003 002f 0
E: 54231.171976 0003 003a 46
E: 54231.171983 0003 002f 1
E: 54231.171983 0003 003a 45
E: 54231.171992 0003 0018 46
E: 54231.171993 0000 0000 0
E: 54231.178962 0003 002f 0
E: 54231.178963 0003 003a 49
E: 54231.178970 0003 002f 1
E: 54231.178970 0003 0036 1296
E: 54231.178971 0003 003a 48
E: 54231.178980 0003 0018 49
E: 54231.178981 0000 0000 0
E: 54231.185574 0003 002f 0
E: 54231.185575 0003 003a 46
E: 54231.185581 0003 002f 1
E: 54231.185582 0003 003a 51
E: 54231.185590 0003 0018 46
E: 54231.185591 0000 0000 0
E: 54231.191989 0003 003a 48
E: 54231.191999 0000 0000 0
E: 54231.199353 0003 002f 0
E: 54231.199355 0003 003a 47
E: 54231.199362 0003 002f 1
E: 54231.199362 0003 003a 49
E: 54231.199371 0003 0018 47
E: 54231.199372 0000 0000 0
E: 54231.205940 0003 002f 0
E: 54231.205941 0003 003a 46
E: 54231.205946 0003 002f 1
E: 54231.205947 0003 003a 46
E: 54231.205954 0003 0018 46
E: 54231.205955 0000 0000 0
E: 54231.212713 0003 002f 0
E: 54231.212714 0003 003a 48
E: 54231.212730 0003 002f 1
E: 54231.212731 0003 0035 161
E: 54231.212732 0003 003a 48
E: 54231.212739 0003 0018 48
E: 54231.212741 0000 0000 0
E: 54231.219368 0003 002f 0
E: 54231.219369 0003 003a 51
E: 54231.219371 0003 0030 254
E: 54231.219387 0003 002f 1
E: 54231.219387 0003 0036 1297
E: 54231.219388 0003 003a 45
E: 54231.219395 0003 0018 51
E: 54231.219396 0000 0000 0
E: 54231.225958 0003 002f 0
E: 54231.225959 0003 003a 50
E: 54231.225966 0003 002f 1
E: 54231.225966 0003 003a 46
E: 54231.225975 0003 0018 50
E: 54231.225976 0000 0000 0
E: 54231.232714 0003 002f 0
E: 54231.232715 0003 003a 49
E: 54231.232717 0003 0030 220
E: 54231.232723 0003 002f 1
E: 54231.232723 0003 003a 51
E: 54231.232733 0003 0018 49
E: 54231.232734 0000 0000 0
E: 54231.239388 0003 002f 0
E: 54231.239390 0003 0036 1211
E: 54231.239391 0003 003a 47
E: 54231.239398 0003 002f 1
E: 54231.239399 0003 003a 52
E: 54231.239407 0003 0001 1211
E: 54231.239408 0003 0018 47
E: 54231.239410 0000 0000 0
E: 54231.246019 0003 002f 0
E: 54231.246021 0003 003a 54
E: 54231.246022 0003 0030 254
E: 54231.246029 0003 002f 1
E: 54231.246029 0003 003a 48
E: 54231.246039 0003 0018 54
E: 54231.246040 0000 0000 0
E: 54231.252646 0003 002f 0
E: 54231.252647 0003 003a 51
E: 54231.252649 0003 0030 220
E: 54231.252655 0003 002f 1
E: 54231.252655 0003 003a 56
E: 54231.252665 0003 0018 51
E: 54231.252666 0000 0000 0
E: 54231.259267 0003 002f 0
E: 54231.259269 0003 003a 47
E: 54231.259276 0003 002f 1
E: 54231.259277 0003 003a 53
E: 54231.259286 0003 0018 47
E: 54231.259287 0000 0000 0
E: 54231.265794 0003 002f 0
E: 54231.265795 0003 003a 49
E: 54231.265801 0003 002f 1
E: 54231.265801 0003 0036 1298
E: 54231.265811 0003 0018 49
E: 54231.265812 0000 0000 0
E: 54231.272181 0003 0035 162
E: 54231.272184 0003 003a 51
E: 54231.272194 0000 0000 0
E: 54231.279079 0003 002f 0
E: 54231.279080 0003 003a 51
E: 54231.279081 0003 0030 254
E: 54231.279087 0003 002f 1
E: 54231.279087 0003 003a 53
E: 54231.279095 0003 0018 51
E: 54231.279097 0000 0000 0
E: 54231.285802 0003 002f 0
E: 54231.285803 0003 003a 50
E: 54231.285805 0003 0030 220
E: 54231.285811 0003 002f 1
E: 54231.285811 0003 003a 55
E: 54231.285820 0003 0018 50
E: 54231.285821 0000 0000 0
E: 54231.292424 0003 002f 0
E: 54231.292426 0003 003a 51
E: 54231.292436 0003 002f 1
E: 54231.292436 0003 003a 52
E: 54231.292448 0003 0018 51
E: 54231.292450 0000 0000 0
E: 54231.306360 0003 002f 0
E: 54231.306362 0003 003a 53
E: 54231.306363 0003 0030 254
E: 54231.306371 0003 0018 53
E: 54231.306373 0000 0000 0
E: 54231.313000 0003 002f 1
E: 54231.313001 0003 0036 1299
E: 54231.313019 0003 003a 47
E: 54231.313034 0000 0000 0
E: 54231.319842 0003 002f 0
E: 54231.319843 0003 003a 51
E: 54231.319850 0003 002f 1
E: 54231.319851 0003 003a 45
E: 54231.319860 0003 0018 51
E: 54231.319861 0000 0000 0
E: 54231.326719 0003 002f 0
E: 54231.326721 0003 003a 54
E: 54231.326728 0003 002f 1
E: 54231.326728 0003 003a 54
E: 54231.326737 0003 0018 54
E: 54231.326739 0000 0000 0
E: 54231.332800 0003 003a 53
E: 54231.332810 0000 0000 0
E: 54231.339505 0003 003a 50
E: 54231.339516 0000 0000 0
E: 54231.346430 0003 002f 0
E: 54231.346430 0003 003a 53
E: 54231.346437 0003 002f 1
E: 54231.346438 0003 003a 52
E: 54231.346446 0003 0018 53
E: 54231.346447 0000 0000 0
E: 54231.352737 0003 0035 163
E: 54231.352739 0003 003a 53
E: 54231.352748 0000 0000 0
E: 54231.359850 0003 002f 0
E: 54231.359851 0003 003a 50
E: 54231.359853 0003 0030 220
E: 54231.359859 0003 002f 1
E: 54231.359859 0003 003a 52
E: 54231.359868 0003 0018 50
E: 54231.359870 0000 0000 0
E: 54231.366365 0003 002f 0
E: 54231.366366 0003 003a 52
E: 54231.366373 0003 002f 1
E: 54231.366373 0003 003a 47
E: 54231.366381 0003 0018 52
E: 54231.366383 0000 0000 0
E: 54231.373463 0003 002f 0
E: 54231.373464 0003 0036 1212
E: 54231.373466 0003 003a 51
E: 54231.373473 0003 002f 1
E: 54231.373473 0003 003a 48
E: 54231.373481 0003 0001 1212
E: 54231.373482 0003 0018 51
E: 54231.373483 0000 0000 0
E: 54231.379982 0003 002f 0
E: 54231.379984 0003 003a 54
E: 54231.379985 0003 0030 254
E: 54231.379991 0003 002f 1
E: 54231.379992 0003 003a 53
E: 54231.380014 0003 0018 54
E: 54231.380016 0000 0000 0
E: 54231.386653 0003 002f 0
E: 54231.386654 0003 003a 51
E: 54231.386660 0003 002f 1
E: 54231.386660 0003 003a 52
E: 54231.386667 0003 0018 51
E: 54231.386668 0000 0000 0
E: 54231.393387 0003 002f 0
E: 54231.393388 0003 003a 50
E: 54231.393389 0003 0030 220
E: 54231.393395 0003 002f 1
E: 54231.393395 0003 003a 47
E: 54231.393403 0003 0018 50
E: 54231.393405 0000 0000 0
E: 54231.399925 0003 002f 0
E: 54231.399926 0003 003a 55
E: 54231.399927 0003 0030 254
E: 54231.399932 0003 002f 1
E: 54231.399933 0003 0036 1300
E: 54231.399934 0003 003a 54
E: 54231.399943 0003 0018 55
E: 54231.399944 0000 0000 0
E: 54231.406576 0003 002f 0
E: 54231.406577 0003 003a 54
E: 54231.406584 0003 002f 1
E: 54231.406585 0003 003a 52
E: 54231.406594 0003 0018 54
E: 54231.406595 0000 0000 0
E: 54231.413527 0003 002f 0
E: 54231.413528 0003 003a 51
E: 54231.413535 0003 002f 1
E: 54231.413535 0003 003a 50
E: 54231.413544 0003 0018 51
E: 54231.413545 0000 0000 0
E: 54231.419786 0003 002f 0
E: 54231.419787 0003 003a 52
E: 54231.419795 0003 0018 52
E: 54231.419796 0000 0000 0
E: 54231.426891 0003 003a 50
E: 54231.426900 0003 002f 1
E: 54231.426900 0003 003a 51
E: 54231.426910 0003 0018 50
E: 54231.426911 0000 0000 0
E: 54231.433438 0003 002f 0
E: 54231.433439 0003 003a 53
E: 54231.433448 0003 0018 53
E: 54231.433450 0000 0000 0
E: 54231.440030 0003 002f 1
E: 54231.440032 0003 003a 52
E: 54231.440042 0000 0000 0
E: 54231.447357 0003 002f 0
E: 54231.447358 0003 003a 54
E: 54231.447365 0003 002f 1
E: 54231.447365 0003 003a 48
E: 54231.447374 0003 0018 54
E: 54231.447375 0000 0000 0
E: 54231.453943 0003 002f 0
E: 54231.453944 0003 003a 53
E: 54231.453950 0003 002f 1
E: 54231.453951 0003 003a 51
E: 54231.453959 0003 0018 53
E: 54231.453960 0000 0000 0
E: 54231.460982 0003 002f 0
E: 54231.460984 0003 003a 51
E: 54231.460991 0003 002f 1
E: 54231.460991 0003 003a 53
E: 54231.460999 0003 0018 51
E: 54231.461025 0000 0000 0
E: 54231.467578 0003 002f 0
E: 54231.467579 0003 003a 53
E: 54231.467586 0003 002f 1
E: 54231.467586 0003 003a 51
E: 54231.467595 0003 0018 53
E: 54231.467596 0000 0000 0
E: 54231.474607 0003 002f 0
E: 54231.474608 0003 003a 52
E: 54231.474609 0003 0030 220
E: 54231.474615 0003 002f 1
E: 54231.474616 0003 003a 47
E: 54231.474624 0003 0018 52
E: 54231.474626 0000 0000 0
E: 54231.481201 0003 002f 0
E: 54231.481202 0003 003a 54
E: 54231.481203 0003 0030 254
E: 54231.481209 0003 002f 1
E: 54231.481209 0003 003a 48
E: 54231.481217 0003 0018 54
E: 54231.481218 0000 0000 0
E: 54231.487523 0003 003a 50
E: 54231.487532 0000 0000 0
E: 54231.494551 0003 002f 0
E: 54231.494552 0003 003a 51
E: 54231.494559 0003 002f 1
E: 54231.494560 0003 003a 53
E: 54231.494568 0003 0018 51
E: 54231.494569 0000 0000 0
E: 54231.501268 0003 002f 0
E: 54231.501270 0003 003a 53
E: 54231.501277 0003 002f 1
E: 54231.501277 0003 003a 50
E: 54231.501286 0003 0018 53
E: 54231.501288 0000 0000 0
E: 54231.508705 0003 002f 0
E: 54231.508707 0003 003a 54
E: 54231.508708 0003 0030 220
E: 54231.508714 0003 002f 1
E: 54231.508714 0003 0036 1301
E: 54231.508715 0003 003a 56
E: 54231.508724 0003 0018 54
E: 54231.508726 0000 0000 0
E: 54231.515323 0003 002f 0
E: 54231.515324 0003 003a 53
E: 54231.515326 0003 0030 254
E: 54231.515332 0003 002f 1
E: 54231.515332 0003 003a 50
E: 54231.515341 0003 0018 53
E: 54231.515343 0000 0000 0
E: 54231.521858 0003 002f 0
E: 54231.521859 0003 003a 56
E: 54231.521866 0003 002f 1
E: 54231.521866 0003 003a 49
E: 54231.521875 0003 0018 56
E: 54231.521876 0000 0000 0
E: 54231.528520 0003 002f 0
E: 54231.528521 0003 0035 793
E: 54231.528523 0003 003a 54
E: 54231.528530 0003 002f 1
E: 54231.528531 0003 003a 51
E: 54231.528538 0003 0000 793
E: 54231.528540 0003 0018 54
E: 54231.528541 0000 0000 0
E: 54231.535219 0003 002f 0
E: 54231.535221 0003 0035 794
E: 54231.535223 0003 003a 50
E: 54231.535225 0003 0030 220
E: 54231.535231 0003 002f 1
E: 54231.535231 0003 003a 53
E: 54231.535238 0003 0000 794
E: 54231.535241 0003 0018 50
E: 54231.535242 0000 0000 0
E: 54231.541810 0003 002f 0
E: 54231.541812 0003 003a 53
E: 54231.541824 0003 002f 1
E: 54231.541825 0003 003a 55
E: 54231.541843 0003 0018 53
E: 54231.541845 0000 0000 0
E: 54231.548486 0003 002f 0
E: 54231.548488 0003 003a 52
E: 54231.548490 0003 0030 254
E: 54231.548496 0003 002f 1
E: 54231.548496 0003 003a 48
E: 54231.548506 0003 0018 52
E: 54231.548507 0000 0000 0
E: 54231.554975 0003 002f 0
E: 54231.554976 0003 003a 53
E: 54231.554982 0003 002f 1
E: 54231.554982 0003 0035 164
E: 54231.554984 0003 003a 51
E: 54231.554993 0003 0018 53
E: 54231.554994 0000 0000 0
E: 54231.561691 0003 002f 0
E: 54231.561692 0003 003a 54
E: 54231.561699 0003 002f 1
E: 54231.561700 0003 003a 53
E: 54231.561709 0003 0018 54
E: 54231.561710 0000 0000 0
E: 54231.568709 0003 002f 0
E: 54231.568711 0003 0036 1213
E: 54231.568712 0003 003a 53
E: 54231.568719 0003 002f 1
E: 54231.568719 0003 003a 48
E: 54231.568728 0003 0001 1213
E: 54231.568729 0003 0018 53
E: 54231.568730 0000 0000 0
E: 54231.575373 0003 002f 0
E: 54231.575374 0003 003a 54
E: 54231.575382 0003 002f 1
E: 54231.575382 0003 003a 49
E: 54231.575391 0003 0018 54
E: 54231.575393 0000 0000 0
E: 54231.581811 0003 002f 0
E: 54231.581812 0003 0035 793
E: 54231.581814 0003 003a 55
E: 54231.581821 0003 002f 1
E: 54231.581821 0003 003a 52
E: 54231.581828 0003 0000 793
E: 54231.581830 0003 0018 55
E: 54231.581832 0000 0000 0
E: 54231.588513 0003 002f 0
E: 54231.588514 0003 0036 1212
E: 54231.588515 0003 003a 52
E: 54231.588522 0003 002f 1
E: 54231.588522 0003 003a 50
E: 54231.588530 0003 0001 1212
E: 54231.588531 0003 0018 52
E: 54231.588533 0000 0000 0
E: 54231.594770 0003 003a 52
E: 54231.594779 0000 0000 0
E: 54231.601746 0003 002f 0
E: 54231.601747 0003 0036 1213
E: 54231.601748 0003 003a 55
E: 54231.601755 0003 002f 1
E: 54231.601755 0003 003a 56
E: 54231.601762 0003 0001 1213
E: 54231.601763 0003 0018 55
E: 54231.601764 0000 0000 0
E: 54231.608553 0003 002f 0
E: 54231.608554 0003 003a 53
E: 54231.608562 0003 002f 1
E: 54231.608562 0003 003a 51
E: 54231.608571 0003 0018 53
E: 54231.608572 0000 0000 0
E: 54231.614848 0003 003a 49
E: 54231.614859 0000 0000 0
E: 54231.621702 0003 002f 0
E: 54231.621703 0003 0036 1212
E: 54231.621704 0003 003a 54
E: 54231.621711 0003 002f 1
E: 54231.621711 0003 003a 51
E: 54231.621719 0003 0001 1212
E: 54231.621720 0003 0018 54
E: 54231.621722 0000 0000 0
E: 54231.628458 0003 002f 0
E: 54231.628459 0003 003a 52
E: 54231.628466 0003 002f 1
E: 54231.628466 0003 003a 50
E: 54231.628475 0003 0018 52
E: 54231.628477 0000 0000 0
E: 54231.635085 0003 002f 0
E: 54231.635086 0003 0036 1213
E: 54231.635088 0003 003a 55
E: 54231.635095 0003 002f 1
E: 54231.635096 0003 003a 47
E: 54231.635104 0003 0001 1213
E: 54231.635105 0003 0018 55
E: 54231.635106 0000 0000 0
E: 54231.641698 0003 002f 0
E: 54231.641699 0003 003a 52
E: 54231.641706 0003 002f 1
E: 54231.641707 0003 003a 48
E: 54231.641716 0003 0018 52
E: 54231.641717 0000 0000 0
E: 54231.648232 0003 002f 0
E: 54231.648233 0003 003a 51
E: 54231.648240 0003 002f 1
E: 54231.648240 0003 003a 53
E: 54231.648249 0003 0018 51
E: 54231.648250 0000 0000 0
E: 54231.654937 0003 002f 0
E: 54231.654938 0003 0036 1212
E: 54231.654939 0003 003a 52
E: 54231.654946 0003 002f 1
E: 54231.654947 0003 003a 51
E: 54231.654955 0003 0001 1212
E: 54231.654956 0003 0018 52
E: 54231.654957 0000 0000 0
E: 54231.661506 0003 002f 0
E: 54231.661507 0003 003a 51
E: 54231.661513 0003 002f 1
E: 54231.661514 0003 003a 50
E: 54231.661522 0003 0018 51
E: 54231.661523 0000 0000 0
E: 54231.668175 0003 002f 0
E: 54231.668175 0003 0035 794
E: 54231.668178 0003 003a 52
E: 54231.668184 0003 002f 1
E: 54231.668184 0003 003a 53
E: 54231.668191 0003 0000 794
E: 54231.668193 0003 0018 52
E: 54231.668194 0000 0000 0
E: 54231.674922 0003 002f 0
E: 54231.674924 0003 0036 1213
E: 54231.674925 0003 003a 51
E: 54231.674931 0003 002f 1
E: 54231.674932 0003 0036 1302
E: 54231.674933 0003 003a 52
E: 54231.674941 0003 0001 1213
E: 54231.674942 0003 0018 51
E: 54231.674943 0000 0000 0
E: 54231.681459 0003 002f 0
E: 54231.681460 0003 0035 793
E: 54231.681462 0003 003a 52
E: 54231.681469 0003 002f 1
E: 54231.681469 0003 003a 54
E: 54231.681475 0003 0000 793
E: 54231.681478 0003 0018 52
E: 54231.681479 0000 0000 0
E: 54231.688135 0003 002f 0
E: 54231.688136 0003 0035 794
E: 54231.688137 0003 0036 1212
E: 54231.688138 0003 003a 54
E: 54231.688145 0003 002f 1
E: 54231.688145 0003 003a 51
E: 54231.688152 0003 0000 794
E: 54231.688153 0003 0001 1212
E: 54231.688154 0003 0018 54
E: 54231.688155 0000 0000 0
E: 54231.695150 0003 002f 0
E: 54231.695151 0003 0036 1213
E: 54231.695152 0003 003a 52
E: 54231.695154 0003 0030 220
E: 54231.695160 0003 002f 1
E: 54231.695160 0003 003a 50
E: 54231.695168 0003 0001 1213
E: 54231.695169 0003 0018 52
E: 54231.695170 0000 0000 0
E: 54231.702588 0003 002f 0
E: 54231.702588 0003 003a 53
E: 54231.702590 0003 0030 254
E: 54231.702595 0003 002f 1
E: 54231.702596 0003 003a 51
E: 54231.702604 0003 0018 53
E: 54231.702605 0000 0000 0
E: 54231.709708 0003 002f 0
E: 54231.709709 0003 003a 52
E: 54231.709711 0003 0030 220
E: 54231.709717 0003 002f 1
E: 54231.709718 0003 003a 49
E: 54231.709727 0003 0018 52
E: 54231.709729 0000 0000 0
E: 54231.715894 0003 002f 0
E: 54231.715895 0003 003a 53
E: 54231.715896 0003 0030 254
E: 54231.715904 0003 0018 53
E: 54231.715905 0000 0000 0
E: 54231.722917 0003 003a 52
E: 54231.722919 0003 0030 220
E: 54231.722925 0003 002f 1
E: 54231.722926 0003 003a 48
E: 54231.722935 0003 0018 52
E: 54231.722936 0000 0000 0
E: 54231.729497 0003 002f 0
E: 54231.729497 0003 003a 53
E: 54231.729499 0003 0030 254
E: 54231.729505 0003 002f 1
E: 54231.729505 0003 003a 53
E: 54231.729513 0003 0018 53
E: 54231.729514 0000 0000 0
E: 54231.736388 0003 002f 0
E: 54231.736389 0003 003a 52
E: 54231.736396 0003 002f 1
E: 54231.736396 0003 003a 50
E: 54231.736405 0003 0018 52
E: 54231.736406 0000 0000 0
E: 54231.742575 0003 002f 0
E: 54231.742577 0003 003a 57
E: 54231.742586 0003 0018 57
E: 54231.742588 0000 0000 0
E: 54231.749729 0003 003a 54
E: 54231.749737 0003 002f 1
E: 54231.749738 0003 003a 48
E: 54231.749748 0003 0018 54
E: 54231.749749 0000 0000 0
E: 54231.756492 0003 002f 0
E: 54231.756494 0003 0035 793
E: 54231.756496 0003 003a 51
E: 54231.756504 0003 002f 1
E: 54231.756504 0003 003a 51
E: 54231.756511 0003 0000 793
E: 54231.756514 0003 0018 51
E: 54231.756515 0000 0000 0
E: 54231.762692 0003 003a 54
E: 54231.762702 0000 0000 0
E: 54231.769675 0003 003a 52
E: 54231.769685 0000 0000 0
E: 54231.776419 0003 003a 48
E: 54231.776431 0000 0000 0
E: 54231.783284 0003 002f 0
E: 54231.783286 0003 003a 53
E: 54231.783292 0003 002f 1
E: 54231.783293 0003 003a 53
E: 54231.783302 0003 0018 53
E: 54231.783303 0000 0000 0
E: 54231.789984 0003 002f 0
E: 54231.789985 0003 003a 51
E: 54231.789992 0003 002f 1
E: 54231.789992 0003 003a 52
E: 54231.790028 0003 0018 51
E: 54231.790030 0000 0000 0
E: 54231.802851 0003 002f 0
E: 54231.802851 0003 003a 55
E: 54231.802859 0003 0018 55
E: 54231.802861 0000 0000 0
E: 54231.809556 0003 003a 52
E: 54231.809565 0003 0018 52
E: 54231.809566 0000 0000 0
E: 54231.816466 0003 003a 51
E: 54231.816467 0003 0030 220
E: 54231.816473 0003 002f 1
E: 54231.816474 0003 003a 51
E: 54231.816482 0003 0018 51
E: 54231.816483 0000 0000 0
E: 54231.822828 0003 003a 52
E: 54231.822838 0000 0000 0
E: 54231.829765 0003 0036 1303
E: 54231.829775 0000 0000 0
E: 54231.837076 0003 002f 0
E: 54231.837077 0003 003a 54
E: 54231.837078 0003 0030 254
E: 54231.837084 0003 002f 1
E: 54231.837084 0003 003a 50
E: 54231.837338 0003 0018 54
E: 54231.837340 0000 0000 0
E: 54231.843541 0003 002f 0
E: 54231.843542 0003 003a 51
E: 54231.843552 0003 0018 51
E: 54231.843553 0000 0000 0
E: 54231.850057 0003 002f 1
E: 54231.850058 0003 003a 48
E: 54231.850068 0000 0000 0
E: 54231.857137 0003 002f 0
E: 54231.857139 0003 003a 53
E: 54231.857146 0003 002f 1
E: 54231.857146 0003 003a 52
E: 54231.857155 0003 0018 53
E: 54231.857157 0000 0000 0
E: 54231.863671 0003 002f 0
E: 54231.863672 0003 003a 54
E: 54231.863679 0003 002f 1
E: 54231.863680 0003 003a 48
E: 54231.863688 0003 0018 54
E: 54231.863689 0000 0000 0
E: 54231.870653 0003 002f 0
E: 54231.870654 0003 003a 50
E: 54231.870655 0003 0030 220
E: 54231.870661 0003 002f 1
E: 54231.870661 0003 003a 50
E: 54231.870669 0003 0018 50
E: 54231.870671 0000 0000 0
E: 54231.877821 0003 002f 0
E: 54231.877822 0003 003a 51
E: 54231.877824 0003 0030 254
E: 54231.877828 0003 002f 1
E: 54231.877829 0003 0035 165
E: 54231.877831 0003 003a 51
E: 54231.877840 0003 0018 51
E: 54231.877841 0000 0000 0
E: 54231.884542 0003 002f 0
E: 54231.884543 0003 003a 47
E: 54231.884548 0003 002f 1
E: 54231.884548 0003 0035 164
E: 54231.884550 0003 003a 53
E: 54231.884559 0003 0018 47
E: 54231.884561 0000 0000 0
E: 54231.890976 0003 002f 0
E: 54231.890978 0003 003a 49
E: 54231.890986 0003 0018 49
E: 54231.890988 0000 0000 0
E: 54231.898846 0003 003a 51
E: 54231.898848 0003 0030 220
E: 54231.898855 0003 002f 1
E: 54231.898855 0003 003a 52
E: 54231.898864 0003 0018 51
E: 54231.898865 0000 0000 0
E: 54231.905384 0003 002f 0
E: 54231.905386 0003 003a 49
E: 54231.905387 0003 0030 254
E: 54231.905393 0003 002f 1
E: 54231.905393 0003 003a 56
E: 54231.905402 0003 0018 49
E: 54231.905404 0000 0000 0
E: 54231.912095 0003 002f 0
E: 54231.912096 0003 003a 47
E: 54231.912097 0003 0030 220
E: 54231.912103 0003 002f 1
E: 54231.912104 0003 003a 52
E: 54231.912112 0003 0018 47
E: 54231.912114 0000 0000 0
E: 54231.918995 0003 002f 0
E: 54231.918995 0003 003a 49
E: 54231.919025 0003 002f 1
E: 54231.919026 0003 003a 50
E: 54231.919037 0003 0018 49
E: 54231.919039 0000 0000 0
E: 54231.925705 0003 002f 0
E: 54231.925706 0003 003a 52
E: 54231.925713 0003 002f 1
E: 54231.925713 0003 003a 51
E: 54231.925722 0003 0018 52
E: 54231.925723 0000 0000 0
E: 54231.932630 0003 002f 0
E: 54231.932630 0003 003a 49
E: 54231.932637 0003 002f 1
E: 54231.932637 0003 003a 50
E: 54231.932645 0003 0018 49
E: 54231.932647 0000 0000 0
E: 54231.939296 0003 002f 0
E: 54231.939297 0003 003a 51
E: 54231.939298 0003 0030 254
E: 54231.939303 0003 002f 1
E: 54231.939304 0003 003a 51
E: 54231.939312 0003 0018 51
E: 54231.939313 0000 0000 0
E: 54231.946280 0003 002f 0
E: 54231.946281 0003 003a 50
E: 54231.946283 0003 0030 220
E: 54231.946289 0003 002f 1
E: 54231.946289 0003 003a 50
E: 54231.946299 0003 0018 50
E: 54231.946300 0000 0000 0
E: 54231.953050 0003 002f 0
E: 54231.953052 0003 003a 51
E: 54231.953059 0003 002f 1
E: 54231.953059 0003 003a 48
E: 54231.953068 0003 0018 51
E: 54231.953070 0000 0000 0
E: 54231.960041 0003 002f 0
E: 54231.960043 0003 003a 52
E: 54231.960046 0003 0030 254
E: 54231.960054 0003 002f 1
E: 54231.960055 0003 003a 47
E: 54231.960067 0003 0018 52
E: 54231.960070 0000 0000 0
E: 54231.966840 0003 002f 0
E: 54231.966841 0003 0035 794
E: 54231.966843 0003 003a 53
E: 54231.966850 0003 002f 1
E: 54231.966850 0003 003a 50
E: 54231.966857 0003 0000 794
E: 54231.966859 0003 0018 53
E: 54231.966861 0000 0000 0
E: 54231.973533 0003 002f 0
E: 54231.973534 0003 0035 793
E: 54231.973537 0003 003a 51
E: 54231.973538 0003 0030 220
E: 54231.973544 0003 002f 1
E: 54231.973544 0003 003a 52
E: 54231.973551 0003 0000 793
E: 54231.973554 0003 0018 51
E: 54231.973555 0000 0000 0
E: 54231.980139 0003 002f 0
E: 54231.980140 0003 003a 49
E: 54231.980146 0003 002f 1
E: 54231.980147 0003 003a 54
E: 54231.980155 0003 0018 49
E: 54231.980156 0000 0000 0
E: 54231.986908 0003 002f 0
E: 54231.986909 0003 0035 794
E: 54231.986912 0003 003a 51
E: 54231.986919 0003 002f 1
E: 54231.986919 0003 003a 52
E: 54231.986926 0003 0000 794
E: 54231.986929 0003 0018 51
E: 54231.986930 0000 0000 0
E: 54231.993489 0003 002f 0
E: 54231.993490 0003 0035 793
E: 54231.993493 0003 003a 52
E: 54231.993495 0003 0030 254
E: 54231.993502 0003 002f 1
E: 54231.993503 0003 003a 47
E: 54231.993511 0003 0000 793
E: 54231.993513 0003 0018 52
E: 54231.993515 0000 0000 0
E: 54232.000419 0003 002f 0
E: 54232.000420 0003 003a 50
E: 54232.000427 0003 002f 1
E: 54232.000427 0003 003a 50
E: 54232.000436 0003 0018 50
E: 54232.000437 0000 0000 0
E: 54232.007136 0003 002f 0
E: 54232.007137 0003 003a 52
E: 54232.007142 0003 002f 1
E: 54232.007142 0003 0035 165
E: 54232.007145 0003 003a 49
E: 54232.007153 0003 0018 52
E: 54232.007154 0000 0000 0
E: 54232.013758 0003 002f 0
E: 54232.013759 0003 003a 51
E: 54232.013766 0003 002f 1
E: 54232.013766 0003 003a 52
E: 54232.013775 0003 0018 51
E: 54232.013776 0000 0000 0
E: 54232.019996 0003 003a 55
E: 54232.020031 0000 0000 0
E: 54232.027062 0003 002f 0
E: 54232.027063 0003 003a 50
E: 54232.027070 0003 002f 1
E: 54232.027070 0003 003a 49
E: 54232.027079 0003 0018 50
E: 54232.027080 0000 0000 0
E: 54232.033739 0003 002f 0
E: 54232.033740 0003 0035 794
E: 54232.033743 0003 003a 51
E: 54232.033750 0003 002f 1
E: 54232.033750 0003 003a 52
E: 54232.033757 0003 0000 794
E: 54232.033759 0003 0018 51
E: 54232.033760 0000 0000 0
E: 54232.040720 0003 002f 0
E: 54232.040722 0003 0035 793
E: 54232.040724 0003 003a 49
E: 54232.040731 0003 002f 1
E: 54232.040732 0003 003a 48
E: 54232.040739 0003 0000 793
E: 54232.040741 0003 0018 49
E: 54232.040742 0000 0000 0
E: 54232.047371 0003 002f 0
E: 54232.047373 0003 003a 50
E: 54232.047374 0003 0030 220
E: 54232.047380 0003 002f 1
E: 54232.047381 0003 003a 50
E: 54232.047390 0003 0018 50
E: 54232.047391 0000 0000 0
E: 54232.053872 0003 002f 0
E: 54232.053873 0003 003a 54
E: 54232.053875 0003 0030 254
E: 54232.053882 0003 0018 54
E: 54232.053884 0000 0000 0
E: 54232.060929 0003 003a 51
E: 54232.060932 0003 0030 220
E: 54232.060938 0003 002f 1
E: 54232.060938 0003 003a 47
E: 54232.060947 0003 0018 51
E: 54232.060949 0000 0000 0
E: 54232.067484 0003 002f 0
E: 54232.067485 0003 003a 49
E: 54232.067492 0003 002f 1
E: 54232.067492 0003 003a 54
E: 54232.067500 0003 0018 49
E: 54232.067501 0000 0000 0
E: 54232.074189 0003 002f 0
E: 54232.074190 0003 003a 50
E: 54232.074197 0003 002f 1
E: 54232.074197 0003 003a 51
E: 54232.074206 0003 0018 50
E: 54232.074207 0000 0000 0
E: 54232.080433 0003 002f 0
E: 54232.080433 0003 003a 51
E: 54232.080441 0003 0018 51
E: 54232.080442 0000 0000 0
E: 54232.087482 0003 0035 794
E: 54232.087486 0003 003a 50
E: 54232.087496 0003 002f 1
E: 54232.087496 0003 003a 52
E: 54232.087506 0003 0000 794
E: 54232.087509 0003 0018 50
E: 54232.087510 0000 0000 0
E: 54232.094909 0003 002f 0
E: 54232.094910 0003 003a 48
E: 54232.094915 0003 002f 1
E: 54232.094916 0003 0035 164
E: 54232.094918 0003 003a 53
E: 54232.094927 0003 0018 48
E: 54232.094928 0000 0000 0
E: 54232.101572 0003 002f 0
E: 54232.101573 0003 003a 51
E: 54232.101574 0003 0030 254
E: 54232.101578 0003 002f 1
E: 54232.101579 0003 0035 165
E: 54232.101581 0003 003a 55
E: 54232.101589 0003 0018 51
E: 54232.101590 0000 0000 0
E: 54232.108223 0003 002f 0
E: 54232.108223 0003 003a 50
E: 54232.108225 0003 0030 220
E: 54232.108230 0003 002f 1
E: 54232.108231 0003 003a 52
E: 54232.108239 0003 0018 50
E: 54232.108240 0000 0000 0
E: 54232.114542 0003 003a 54
E: 54232.114551 0000 0000 0
E: 54232.121215 0003 003a 49
E: 54232.121224 0000 0000 0
E: 54232.128542 0003 002f 0
E: 54232.128543 0003 003a 53
E: 54232.128557 0003 0018 53
E: 54232.128558 0000 0000 0
E: 54232.135205 0003 003a 50
E: 54232.135207 0003 0030 254
E: 54232.135212 0003 002f 1
E: 54232.135213 0003 003a 52
E: 54232.135221 0003 0018 50
E: 54232.135222 0000 0000 0
E: 54232.141867 0003 002f 0
E: 54232.141868 0003 003a 49
E: 54232.141869 0003 0030 220
E: 54232.141875 0003 002f 1
E: 54232.141875 0003 003a 53
E: 54232.141883 0003 0018 49
E: 54232.141884 0000 0000 0
E: 54232.148220 0003 003a 49
E: 54232.148230 0000 0000 0
E: 54232.155200 0003 002f 0
E: 54232.155200 0003 003a 51
E: 54232.155207 0003 002f 1
E: 54232.155207 0003 003a 54
E: 54232.155215 0003 0018 51
E: 54232.155216 0000 0000 0
E: 54232.161883 0003 002f 0
E: 54232.161883 0003 003a 48
E: 54232.161888 0003 002f 1
E: 54232.161888 0003 0035 164
E: 54232.161890 0003 003a 50
E: 54232.161898 0003 0018 48
E: 54232.161900 0000 0000 0
E: 54232.168527 0003 002f 0
E: 54232.168528 0003 003a 51
E: 54232.168534 0003 002f 1
E: 54232.168534 0003 003a 53
E: 54232.168542 0003 0018 51
E: 54232.168544 0000 0000 0
E: 54232.175523 0003 002f 0
E: 54232.175524 0003 003a 49
E: 54232.175529 0003 002f 1
E: 54232.175529 0003 0035 165
E: 54232.175530 0003 0036 1304
E: 54232.175532 0003 003a 51
E: 54232.175539 0003 0018 49
E: 54232.175541 0000 0000 0
E: 54232.182194 0003 002f 0
E: 54232.182195 0003 003a 52
E: 54232.182202 0003 002f 1
E: 54232.182203 0003 0036 1303
E: 54232.182204 0003 003a 53
E: 54232.182214 0003 0018 52
E: 54232.182215 0000 0000 0
E: 54232.188888 0003 002f 0
E: 54232.188888 0003 003a 49
E: 54232.188894 0003 002f 1
E: 54232.188895 0003 0036 1304
E: 54232.188896 0003 003a 49
E: 54232.188904 0003 0018 49
E: 54232.188905 0000 0000 0
E: 54232.195230 0003 002f 0
E: 54232.195231 0003 003a 51
E: 54232.195239 0003 0018 51
E: 54232.195240 0000 0000 0
E: 54232.202239 0003 003a 48
E: 54232.202244 0003 002f 1
E: 54232.202244 0003 0035 164
E: 54232.202246 0003 0036 1303
E: 54232.202247 0003 003a 51
E: 54232.202255 0003 0018 48
E: 54232.202256 0000 0000 0
E: 54232.208907 0003 002f 0
E: 54232.208908 0003 003a 51
E: 54232.208909 0003 0030 254
E: 54232.208913 0003 002f 1
E: 54232.208914 0003 0035 165
E: 54232.208916 0003 003a 49
E: 54232.208924 0003 0018 51
E: 54232.208925 0000 0000 0
E: 54232.215911 0003 002f 0
E: 54232.215911 0003 003a 50
E: 54232.215918 0003 002f 1
E: 54232.215918 0003 003a 50
E: 54232.215926 0003 0018 50
E: 54232.215927 0000 0000 0
E: 54232.222570 0003 002f 0
E: 54232.222571 0003 0035 793
E: 54232.222573 0003 003a 51
E: 54232.222578 0003 002f 1
E: 54232.222578 0003 0035 164
E: 54232.222586 0003 0000 793
E: 54232.222588 0003 0018 51
E: 54232.222589 0000 0000 0
E: 54232.229250 0003 002f 0
E: 54232.229251 0003 003a 50
E: 54232.229252 0003 0030 220
E: 54232.229258 0003 002f 1
E: 54232.229258 0003 003a 53
E: 54232.229266 0003 0018 50
E: 54232.229267 0000 0000 0
E: 54232.235619 0003 0036 1304
E: 54232.235621 0003 003a 50
E: 54232.235631 0000 0000 0
E: 54232.242903 0003 002f 0
E: 54232.242904 0003 003a 49
E: 54232.242911 0003 002f 1
E: 54232.242912 0003 003a 51
E: 54232.242920 0003 0018 49
E: 54232.242922 0000 0000 0
E: 54232.250036 0003 002f 0
E: 54232.250038 0003 0035 794
E: 54232.250041 0003 003a 48
E: 54232.250051 0003 002f 1
E: 54232.250052 0003 003a 47
E: 54232.250062 0003 0000 794
E: 54232.250065 0003 0018 48
E: 54232.250067 0000 0000 0
E: 54232.256991 0003 002f 0
E: 54232.256992 0003 003a 47
E: 54232.257000 0003 002f 1
E: 54232.257000 0003 003a 46
E: 54232.257019 0003 0018 47
E: 54232.257021 0000 0000 0
E: 54232.263494 0003 002f 0
E: 54232.263495 0003 0035 793
E: 54232.263497 0003 003a 49
E: 54232.263498 0003 0030 254
E: 54232.263504 0003 002f 1
E: 54232.263504 0003 003a 54
E: 54232.263511 0003 0000 793
E: 54232.263513 0003 0018 49
E: 54232.263514 0000 0000 0
E: 54232.269836 0003 002f 0
E: 54232.269837 0003 003a 44
E: 54232.269838 0003 0030 220
E: 54232.269845 0003 0018 44
E: 54232.269847 0000 0000 0
E: 54232.277248 0003 0035 794
E: 54232.277251 0003 003a 40
E: 54232.277258 0003 002f 1
E: 54232.277258 0003 003a 53
E: 54232.277265 0003 0000 794
E: 54232.277267 0003 0018 40
E: 54232.277269 0000 0000 0
E: 54232.283803 0003 002f 0
E: 54232.283803 0003 003a 36
E: 54232.283804 0003 0030 180
E: 54232.283810 0003 002f 1
E: 54232.283811 0003 003a 51
E: 54232.283819 0003 0018 36
E: 54232.283820 0000 0000 0
E: 54232.291353 0003 002f 0
E: 54232.291354 0003 003a 34
E: 54232.291359 0003 002f 1
E: 54232.291359 0003 0035 165
E: 54232.291361 0003 003a 52
E: 54232.291370 0003 0018 34
E: 54232.291371 0000 0000 0
E: 54232.298026 0003 002f 0
E: 54232.298026 0003 0035 793
E: 54232.298029 0003 003a 31
E: 54232.298039 0003 002f 1
E: 54232.298039 0003 003a 53
E: 54232.298047 0003 0000 793
E: 54232.298050 0003 0018 31
E: 54232.298052 0000 0000 0
E: 54232.305044 0003 002f 0
E: 54232.305044 0003 003a 27
E: 54232.305049 0003 002f 1
E: 54232.305049 0003 0035 164
E: 54232.305052 0003 003a 50
E: 54232.305060 0003 0018 27
E: 54232.305061 0000 0000 0
E: 54232.311871 0003 002f 0
E: 54232.311873 0003 003a 29
E: 54232.311879 0003 002f 1
E: 54232.311879 0003 0036 1303
E: 54232.311881 0003 003a 52
E: 54232.311890 0003 0018 29
E: 54232.311892 0000 0000 0
E: 54232.318776 0003 002f 0
E: 54232.318777 0003 003a 31
E: 54232.318784 0003 002f 1
E: 54232.318784 0003 003a 46
E: 54232.318792 0003 0018 31
E: 54232.318794 0000 0000 0
E: 54232.325809 0003 002f 0
E: 54232.325810 0003 003a 25
E: 54232.325817 0003 002f 1
E: 54232.325817 0003 003a 48
E: 54232.325826 0003 0018 25
E: 54232.325827 0000 0000 0
E: 54232.332685 0003 002f 0
E: 54232.332686 0003 003a 21
E: 54232.332687 0003 0030 126
E: 54232.332693 0003 002f 1
E: 54232.332694 0003 003a 47
E: 54232.332702 0003 0018 21
E: 54232.332703 0000 0000 0
E: 54232.338748 0003 0036 1304
E: 54232.338749 0003 003a 45
E: 54232.338758 0000 0000 0
E: 54232.350281 0003 003a 42
E: 54232.350291 0000 0000 0
E: 54232.355958 0003 003a 44
E: 54232.355967 0000 0000 0
E: 54232.362054 0003 002f 0
E: 54232.362055 0003 0039 -1
E: 54232.362061 0003 002f 1
E: 54232.362061 0003 003a 41
E: 54232.362064 0001 0145 1
E: 54232.362066 0001 014d 0
E: 54232.362068 0003 0000 164
E: 54232.362069 0003 0001 1304
E: 54232.362070 0003 0018 41
E: 54232.362071 0000 0000 0
E: 54232.367439 0003 003a 40
E: 54232.367441 0003 0030 220
E: 54232.367446 0003 0018 40
E: 54232.367448 0000 0000 0
E: 54232.373163 0003 0035 163
E: 54232.373165 0003 003a 34
E: 54232.373170 0003 0000 163
E: 54232.373172 0003 0018 34
E: 54232.373173 0000 0000 0
E: 54232.399168 0003 0039 -1
E: 54232.399172 0001 014a 0
E: 54232.399172 0001 0145 0
E: 54232.399174 0003 0018 0
E: 54232.399174 0000 0000 0
E: 54232.399674 0003 002f 0
E: 54232.399674 0003 0039 -1
E: 54232.399674 0003 002f 1
E: 54232.399674 0003 0039 -1
E: 54232.399674 0003 002f 2
E: 54232.399674 0003 0039 -1
E: 54232.399674 0003 002f 3
E: 54232.399674 0003 0039 -1
E: 54232.399674 0003 002f 4
E: 54232.399674 0003 0039 -1
E: 54232.399674 0003 002f 5
E: 54232.399674 0003 0039 -1
E: 54232.399674 0003 002f 6
E: 54232.399674 0003 0039 -1
E: 54232.399674 0003 002f 7
E: 54232.399674 0003 0039 -1
E: 54232.399674 0003 002f 8
E: 54232.399674 0003 0039 -1
E: 54232.399674 0003 002f 9
E: 54232.399674 0003 0039 -1
