# device: Elan Touchpad
# bit: 0B 00 00 00 00 00 00 00
# key: 00 00 00 00 00 00 00 00 00 00 00 00 00 00 00 00 00 00 00 00 00 00 00 00 00 00 00 00 00 00 00 00 00 00 01 00 00 00 00 00 20 E5 00 00 00 00 00 00 00 00 00 00 00 00 00 00 00 00 00 00 00 00 00 00 00 00 00 00 00 00 00 00 00 00 00 00 00 00 00 00 00 00 00 00 00 00 00 00 00 00 00 00 00 00 00 00
# rel: 00 00 00 00 00 00 00 00
# abs: 03 00 00 11 00 80 63 06
# led: 00 00 00 00 00 00 00 00
# prp: 05 00 00 00 00 00 00 00
# absinfo: 0 0 3207 0 0 31
# absinfo: 1 0 1791 0 0 31
# absinfo: 24 0 255 0 0 0
# absinfo: 28 0 15 0 0 0
# absinfo: 47 0 4 0 0 0
# absinfo: 48 0 2430 0 0 0
# absinfo: 49 0 2400 0 0 0
# absinfo: 53 0 3207 0 0 31
# absinfo: 54 0 1791 0 0 31
# absinfo: 57 0 65535 0 0 0
# absinfo: 58 0 255 0 0 0
E: 692.093975 0003 002f 0
E: 692.093975 0003 0030 216
E: 692.093975 0003 0031 140
E: 692.093975 0003 0032 0
E: 692.093975 0003 0033 0
E: 692.093975 0003 0034 0
E: 692.093975 0003 0035 1409
E: 692.093975 0003 0036 804
E: 692.093975 0003 0037 0
E: 692.093975 0003 0038 0
E: 692.093975 0003 0039 14
E: 692.093975 0003 003a 51
E: 692.093975 0003 003b 0
E: 692.093975 0003 002f 1
E: 692.093975 0003 0039 -1
E: 692.093975 0003 002f 2
E: 692.093975 0003 0039 -1
E: 692.093975 0003 002f 3
E: 692.093975 0003 0039 -1
E: 692.093975 0003 002f 4
E: 692.093975 0003 0039 -1
E: 692.093975 0003 002f 0
E: 692.093975 0001 0145 1
E: 692.093975 0001 014a 1
E: 692.093975 0000 0000 0
E: 692.107077 0003 003a 52
E: 692.107077 0003 0018 52
E: 692.107077 0000 0000 0
E: 692.118232 0003 003a 51
E: 692.118232 0003 0018 51
E: 692.118232 0000 0000 0
E: 692.124320 0003 003a 50
E: 692.124320 0003 0018 50
E: 692.124320 0000 0000 0
E: 692.129893 0003 003a 49
E: 692.129893 0003 0018 49
E: 692.129893 0000 0000 0
E: 692.135714 0003 003a 45
E: 692.135714 0003 0018 45
E: 692.135714 0000 0000 0
E: 692.142795 0003 003a 42
E: 692.142795 0003 0030 144
E: 692.142795 0003 0018 42
E: 692.142795 0000 0000 0
E: 692.146860 0003 001c 1
E: 692.146860 0003 0030 72
E: 692.146860 0003 0031 70
E: 692.146860 0000 0000 0
E: 692.152635 0003 0039 -1
E: 692.152635 0001 014a 0
E: 692.152635 0001 0145 0
E: 692.152635 0003 0018 0
E: 692.152635 0000 0000 0
E: 692.579836 0003 0039 15
E: 692.579836 0003 0035 2005
E: 692.579836 0003 0036 730
E: 692.579836 0003 003a 56
E: 692.579836 0003 001c 2
E: 692.579836 0003 0030 216
E: 692.579836 0003 0031 140
E: 692.579836 0003 002f 1
E: 692.579836 0003 0039 16
E: 692.579836 0003 0035 1341
E: 692.579836 0003 0036 1043
E: 692.579836 0003 003a 55
E: 692.579836 0003 001c 3
E: 692.579836 0003 0030 210
E: 692.579836 0003 0031 144
E: 692.579836 0001 014a 1
E: 692.579836 0001 014d 1
E: 692.579836 0003 0000 2005
E: 692.579836 0003 0001 730
E: 692.579836 0003 0018 56
E: 692.579836 0000 0000 0
E: 692.584534 0003 002f 0
E: 692.584534 0003 003a 55
E: 692.584534 0003 001c 2
E: 692.584534 0003 002f 1
E: 692.584534 0003 003a 54
E: 692.584534 0003 001c 3
E: 692.584534 0003 0018 55
E: 692.584534 0000 0000 0
E: 692.589484 0003 001c 2
E: 692.589484 0003 003a 53
E: 692.589484 0003 001c 3
E: 692.589484 0000 0000 0
E: 692.596722 0003 002f 0
E: 692.596722 0003 003a 54
E: 692.596722 0003 001c 2
E: 692.596722 0003 0030 144
E: 692.596722 0003 001c 3
E: 692.596722 0003 0018 54
E: 692.596722 0000 0000 0
E: 692.601040 0003 001c 2
E: 692.601040 0003 001c 3
E: 692.601040 0000 0000 0
E: 692.606073 0003 003a 53
E: 692.606073 0003 001c 2
E: 692.606073 0003 002f 1
E: 692.606073 0003 003a 52
E: 692.606073 0003 001c 3
E: 692.606073 0003 0018 53
E: 692.606073 0000 0000 0
E: 692.611403 0003 001c 2
E: 692.611403 0003 003a 50
E: 692.611403 0003 001c 3
E: 692.611403 0000 0000 0
E: 692.616268 0003 002f 0
E: 692.616268 0003 003a 52
E: 692.616268 0003 001c 2
E: 692.616268 0003 002f 1
E: 692.616268 0003 003a 48
E: 692.616268 0003 0030 144
E: 692.616268 0003 0031 140
E: 692.616268 0003 0018 52
E: 692.616268 0000 0000 0
E: 692.622011 0003 002f 0
E: 692.622011 0003 003a 50
E: 692.622011 0003 002f 1
E: 692.622011 0003 003a 45
E: 692.622011 0003 0018 50
E: 692.622011 0000 0000 0
E: 692.627793 0003 001c 1
E: 692.627793 0003 0030 72
E: 692.627793 0003 0031 70
E: 692.627793 0000 0000 0
E: 692.633855 0003 002f 0
E: 692.633855 0003 0030 72
E: 692.633855 0003 0031 70
E: 692.633855 0000 0000 0
E: 692.639315 0003 0039 -1
E: 692.639315 0003 002f 1
E: 692.639315 0003 0039 -1
E: 692.639315 0001 014a 0
E: 692.639315 0001 014d 0
E: 692.639315 0003 0018 0
E: 692.639315 0000 0000 0
E: 692.639815 0003 002f 0
E: 692.639815 0003 0039 -1
E: 692.639815 0003 002f 1
E: 692.639815 0003 0039 -1
E: 692.639815 0003 002f 2
E: 692.639815 0003 0039 -1
E: 692.639815 0003 002f 3
E: 692.639815 0003 0039 -1
E: 692.639815 0003 002f 4
E: 692.639815 0003 0039 -1
