START	----	provision	timestamp=1488928492	localtime=Mar 07 15:14:52	
	GOOD	----	verify.ssh	timestamp=1488928496	localtime=Mar 07 15:14:56	
	GOOD	----	verify.update	timestamp=1488928499	localtime=Mar 07 15:14:59	
	GOOD	----	verify.brd_config	timestamp=1488928500	localtime=Mar 07 15:15:00	
	GOOD	----	verify.ser_config	timestamp=1488928500	localtime=Mar 07 15:15:00	
	GOOD	----	verify.job	timestamp=1488928501	localtime=Mar 07 15:15:01	
	GOOD	----	verify.servod	timestamp=1488928506	localtime=Mar 07 15:15:06	
	GOOD	----	verify.pwr_button	timestamp=1488928506	localtime=Mar 07 15:15:06	
	GOOD	----	verify.lid_open	timestamp=1488928507	localtime=Mar 07 15:15:07	
	GOOD	----	verify.PASS	timestamp=1488928507	localtime=Mar 07 15:15:07	
	START	provision_AutoUpdate	provision_AutoUpdate	timestamp=1488928507	localtime=Mar 07 15:15:07	
		START	----	----	timestamp=1488928525	localtime=Mar 07 15:15:25	
			GOOD	----	sysinfo.before	timestamp=1488928525	localtime=Mar 07 15:15:25	
		END GOOD	----	----	timestamp=1488928525	localtime=Mar 07 15:15:25	
		GOOD	provision_AutoUpdate	provision_AutoUpdate	timestamp=1488928924	localtime=Mar 07 15:22:04	completed successfully
	END GOOD	provision_AutoUpdate	provision_AutoUpdate	timestamp=1488928924	localtime=Mar 07 15:22:04	
	GOOD	----	verify.ssh	timestamp=1488928925	localtime=Mar 07 15:22:05	
	GOOD	----	verify.devmode	timestamp=1488928926	localtime=Mar 07 15:22:06	
	GOOD	----	verify.power	timestamp=1488928926	localtime=Mar 07 15:22:06	
	GOOD	----	verify.ext4	timestamp=1488928927	localtime=Mar 07 15:22:07	
	GOOD	----	verify.writable	timestamp=1488928927	localtime=Mar 07 15:22:07	
	GOOD	----	verify.tpm	timestamp=1488928928	localtime=Mar 07 15:22:08	
	GOOD	----	verify.good_au	timestamp=1488928928	localtime=Mar 07 15:22:08	
	GOOD	----	verify.fwstatus	timestamp=1488928928	localtime=Mar 07 15:22:08	
	GOOD	----	verify.rwfw	timestamp=1488928928	localtime=Mar 07 15:22:08	
	GOOD	----	verify.python	timestamp=1488928929	localtime=Mar 07 15:22:09	
	GOOD	----	verify.cros	timestamp=1488928933	localtime=Mar 07 15:22:13	
	GOOD	----	verify.PASS	timestamp=1488928933	localtime=Mar 07 15:22:13	
END GOOD	----	provision	timestamp=1488928942	localtime=Mar 07 15:22:22	chromeos4-row1-rack3-host21 provisioned successfully
